OAS:US
9633:HK
9688:HK
8035:JP
9990:HK
2413:JP
6969:HK
9698:HK
1810:HK
9633:HK
9688:HK
8035:JP
9990:HK
9666:HK
3347:HK
6857:JP
XRT:US
9901:HK
QLD:US
9984:JP
6758:JP
9983:JP
6861:JP
6981:JP
6954:JP
6594:JP
6920:JP
4063:JP
3436:JP
6976:JP
9987:HK
6367:JP
6762:JP
4689:JP
6506:JP
6301:JP
9618:HK
7974:JP
BNTX:US
TCEHY:US
TER:US
BBBY:US
APT:AU
CHK:US
GME:US