11/16/2011	15769	15769	15768	15769	0
11/17/2011	15753	15753	15751	15751	0
11/18/2011	15778	15780	15778	15780	0
11/21/2011	15643	15643	15641	15641	0
11/22/2011	15623	15623	15621	15621	0
11/23/2011	15505	15505	15504	15505	0
11/25/2011	15439	15439	15432	15432	0
11/28/2011	15492	15492	15490	15490	0
11/29/2011	15602	15602	15602	15602	0
11/30/2011	15700	15700	15697	15697	0
12/01/2011	15682	15683	15682	15683	0
12/02/2011	15592	15593	15592	15593	0
12/05/2011	15645	15645	15643	15643	0
12/06/2011	15603	15603	15602	15603	0
12/07/2011	15695	15695	15693	15693	0
12/08/2011	15640	15641	15640	15641	0
12/09/2011	15662	15662	15660	15661	0
12/12/2011	15568	15568	15566	15566	0
12/13/2011	15477	15478	15477	15478	0
12/14/2011	15453	15453	15453	15453	0
12/15/2011	15490	15490	15489	15489	0
12/16/2011	15486	15486	15485	15485	0
12/19/2011	15506	15507	15506	15507	0
12/20/2011	15646	15648	15646	15648	0
12/21/2011	15658	15658	15656	15656	0
12/22/2011	15668	15669	15668	15668	0
12/23/2011	15612	15616	15612	15616	0
12/27/2011	15655	15657	15654	15657	0
12/28/2011	15442	15442	15440	15440	0
12/29/2011	15382	15382	15381	15382	0
12/30/2011	15507	15507	15500	15500	0
01/03/2012	15639	15639	15638	15638	0
01/04/2012	15599	15600	15599	15600	0
01/05/2012	15476	15476	15475	15475	0
01/06/2012	15414	15414	15413	15414	0
01/09/2012	15431	15431	15429	15429	0
01/10/2012	15478	15478	15476	15476	0
01/11/2012	15306	15307	15306	15306	0
01/12/2012	15331	15331	15330	15331	0
01/13/2012	15294	15294	15293	15293	0
01/17/2012	15317	15318	15317	15318	0
01/18/2012	15418	15418	15416	15417	0
01/19/2012	15462	15462	15460	15460	0
01/20/2012	15534	15534	15532	15532	0
01/23/2012	15556	15556	15555	15555	0
01/24/2012	15597	15597	15596	15597	0
01/25/2012	15642	15642	15639	15639	0
01/26/2012	15687	15689	15686	15689	0
01/27/2012	15718	15718	15716	15716	0
01/30/2012	15690	15692	15690	15692	0
01/31/2012	15747	15749	15747	15749	0
02/01/2012	15829	15829	15828	15829	0
02/02/2012	15797	15798	15797	15797	0
02/03/2012	15827	15827	15825	15825	0
02/06/2012	15818	15821	15818	15821	0
02/07/2012	15891	15891	15890	15891	0
02/08/2012	15812	15812	15811	15812	0
02/09/2012	15823	15823	15822	15822	0
02/10/2012	15735	15735	15735	15735	0
02/13/2012	15772	15772	15770	15770	0
02/14/2012	15652	15653	15652	15653	0
02/15/2012	15689	15689	15687	15687	0
02/16/2012	15799	15799	15798	15798	0
02/17/2012	15840	15840	15838	15838	0
02/21/2012	15781	15782	15780	15782	0
02/22/2012	15669	15669	15668	15669	0
02/23/2012	15712	15713	15711	15713	0
02/24/2012	15883	15884	15883	15884	0
02/27/2012	15818	15818	15816	15817	0
02/28/2012	15886	15886	15885	15886	0
02/29/2012	15919	15919	15918	15919	0
03/01/2012	15950	15951	15950	15950	0
03/02/2012	15830	15830	15830	15830	0
03/05/2012	15866	15867	15866	15867	0
03/06/2012	15706	15707	15706	15706	0
03/07/2012	15740	15740	15739	15739	0
03/08/2012	15827	15827	15826	15826	0
03/09/2012	15667	15667	15666	15667	0
03/12/2012	15621	15621	15620	15621	0
03/13/2012	15683	15683	15679	15679	0
03/14/2012	15664	15664	15664	15664	0
03/15/2012	15714	15714	15712	15712	0
03/16/2012	15825	15825	15823	15823	0
03/19/2012	15889	15890	15889	15889	0
03/20/2012	15889	15890	15858	15859	0
03/21/2012	15847	15849	15847	15849	0
03/22/2012	15809	15809	15808	15809	0
03/23/2012	15860	15860	15860	15860	0
03/26/2012	15944	15944	15944	15944	0
03/27/2012	15952	15953	15952	15953	0
03/28/2012	15884	15887	15884	15887	0
03/29/2012	15926	15926	15924	15924	0
03/30/2012	15993	15993	15988	15988	0
04/02/2012	16034	16035	16034	16035	0
04/03/2012	15884	15888	15884	15888	0
04/04/2012	15882	15882	15881	15882	0
04/05/2012	15822	15823	15821	15823	0
04/06/2012	15822	15871	15821	15869	0
04/09/2012	15902	15902	15901	15901	0
04/10/2012	15853	15853	15852	15853	0
04/11/2012	15897	15897	15896	15896	0
04/12/2012	15966	15966	15965	15965	0
04/13/2012	15848	15848	15846	15846	0
04/16/2012	15898	15899	15898	15898	0
04/17/2012	15942	15943	15941	15943	0
04/18/2012	16024	16024	16023	16023	0
04/19/2012	16051	16051	16050	16051	0
04/20/2012	16102	16103	16102	16103	0
04/23/2012	16119	16119	16119	16119	0
04/24/2012	16130	16131	16130	16131	0
04/25/2012	16172	16175	16172	16175	0
04/26/2012	16192	16192	16191	16192	0
04/27/2012	16265	16265	16264	16264	0
04/30/2012	16228	16229	16228	16229	0
05/01/2012	16215	16216	16215	16216	0
05/02/2012	16192	16193	16192	16193	0
05/03/2012	16177	16178	16177	16178	0
05/04/2012	16141	16141	16141	16141	0
05/07/2012	16180	16180	16179	16179	0
05/08/2012	16162	16162	16161	16161	0
05/09/2012	16140	16140	16140	16140	0
05/10/2012	16151	16151	16150	16151	0
05/11/2012	16067	16067	16066	16067	0
05/14/2012	16102	16102	16101	16101	0
05/15/2012	16000	16000	15999	16000	0
05/16/2012	15913	15913	15911	15911	0
05/17/2012	15816	15816	15814	15814	0
05/18/2012	15800	15801	15800	15801	0
05/21/2012	15803	15804	15802	15804	0
05/22/2012	15774	15774	15773	15773	0
05/23/2012	15688	15688	15687	15687	0
05/24/2012	15651	15651	15649	15649	0
05/25/2012	15642	15642	15642	15642	0
05/29/2012	15634	15634	15633	15633	0
05/30/2012	15487	15487	15484	15484	0
05/31/2012	15411	15411	15410	15411	0
06/01/2012	15373	15373	15372	15372	0
06/04/2012	15382	15382	15382	15382	0
06/05/2012	15369	15369	15368	15368	0
06/06/2012	15475	15475	15472	15472	0
06/07/2012	15553	15553	15553	15553	0
06/08/2012	15461	15461	15459	15459	0
06/11/2012	15490	15491	15489	15491	0
06/12/2012	15562	15562	15560	15562	0
06/13/2012	15521	15522	15521	15521	0
06/14/2012	15527	15527	15525	15525	0
06/15/2012	15680	15680	15675	15676	0
06/18/2012	15665	15665	15663	15663	0
06/19/2012	15728	15728	15727	15728	0
06/20/2012	15695	15695	15694	15694	0
06/21/2012	15587	15591	15586	15591	0
06/22/2012	15583	15583	15582	15582	0
06/25/2012	15560	15560	15559	15559	0
06/26/2012	15633	15634	15633	15634	0
06/27/2012	15554	15554	15554	15554	0
06/28/2012	15492	15493	15491	15493	0
06/29/2012	15679	15679	15677	15677	0
07/02/2012	15691	15691	15689	15689	0
07/03/2012	15692	15693	15692	15693	0
07/05/2012	15522	15522	15522	15522	0
07/06/2012	15470	15472	15470	15472	0
07/09/2012	15515	15516	15514	15516	0
07/10/2012	15503	15503	15502	15502	0
07/11/2012	15484	15485	15484	15485	0
07/12/2012	15427	15427	15427	15427	0
07/13/2012	15565	15565	15564	15564	0
07/16/2012	15626	15626	15625	15625	0
07/17/2012	15645	15645	15644	15644	0
07/18/2012	15637	15638	15637	15638	0
07/19/2012	15720	15720	15720	15720	0
07/20/2012	15614	15614	15613	15614	0
07/23/2012	15518	15519	15518	15519	0
07/24/2012	15505	15506	15504	15506	0
07/25/2012	15511	15511	15507	15507	0
07/26/2012	15691	15692	15691	15691	0
07/27/2012	15725	15725	15724	15724	0
07/30/2012	15709	15709	15707	15707	0
07/31/2012	15679	15681	15679	15681	0
08/01/2012	15550	15551	15550	15551	0
08/02/2012	15503	15503	15501	15501	0
08/03/2012	15644	15644	15643	15643	0
08/06/2012	15609	15609	15608	15608	0
08/07/2012	15637	15638	15637	15638	0
08/08/2012	15647	15648	15647	15648	0
08/09/2012	15632	15633	15632	15633	0
08/10/2012	15672	15672	15671	15671	0
08/13/2012	15686	15686	15685	15686	0
08/14/2012	15690	15690	15689	15689	0
08/15/2012	15684	15686	15684	15686	0
08/16/2012	15738	15738	15738	15738	0
08/17/2012	15690	15690	15690	15690	0
08/20/2012	15709	15709	15708	15708	0
08/21/2012	15777	15777	15777	15777	0
08/22/2012	15866	15866	15865	15866	0
08/23/2012	15864	15864	15863	15863	0
08/24/2012	15809	15809	15809	15809	0
08/27/2012	15796	15797	15796	15797	0
08/28/2012	15820	15820	15820	15820	0
08/29/2012	15835	15835	15834	15835	0
08/30/2012	15785	15786	15785	15786	0
08/31/2012	15880	15882	15880	15882	0
09/04/2012	15879	15880	15879	15880	0
09/05/2012	15905	15905	15904	15904	0
09/06/2012	15936	15936	15935	15936	0
09/07/2012	16006	16006	16005	16005	0
09/10/2012	15995	15996	15995	15995	0
09/11/2012	16063	16064	16063	16064	0
09/12/2012	16100	16100	16097	16097	0
09/13/2012	16148	16149	16148	16148	0
09/14/2012	16215	16217	16215	16216	0
09/17/2012	16234	16234	16232	16233	0
09/18/2012	16236	16236	16235	16235	0
09/19/2012	16224	16224	16224	16224	0
09/20/2012	16213	16213	16212	16212	0
09/21/2012	16242	16242	16241	16241	0
09/24/2012	16216	16225	16216	16225	0
09/25/2012	16207	16207	16206	16206	0
09/26/2012	16152	16152	16151	16151	0
09/27/2012	16232	16233	16232	16232	0
09/28/2012	16141	16141	16136	16136	0
10/01/2012	16124	16127	16124	16127	0
10/02/2012	16137	16137	16136	16137	0
10/03/2012	16069	16070	16069	16070	0
10/04/2012	16180	16181	16180	16181	0
10/05/2012	16139	16139	16138	16138	0
10/08/2012	16026	16026	16026	16026	0
10/09/2012	16002	16002	16001	16002	0
10/10/2012	16000	16001	15999	16001	0
10/11/2012	16038	16040	16038	16040	0
10/12/2012	16070	16070	16069	16070	0
10/15/2012	16071	16071	16071	16071	0
10/16/2012	16110	16110	16108	16108	0
10/17/2012	16151	16151	16150	16150	0
10/18/2012	16057	16059	16057	16059	0
10/19/2012	16009	16009	16009	16009	0
10/22/2012	16003	16003	16001	16001	0
10/23/2012	15939	15940	15939	15939	0
10/24/2012	16035	16036	16035	16035	0
10/25/2012	16123	16123	16121	16121	0
10/26/2012	16096	16096	16095	16095	0
10/30/2012	16075	16075	16075	16075	0
10/31/2012	16128	16128	16127	16127	0
11/01/2012	16126	16126	16125	16126	0
11/02/2012	16019	16019	16019	16019	0
11/05/2012	15969	15969	15968	15969	0
11/06/2012	15995	15995	15992	15992	0
11/07/2012	15985	15986	15985	15986	0
11/08/2012	15977	15977	15977	15977	0
11/09/2012	15901	15901	15901	15901	0
11/12/2012	15873	15873	15873	15873	0
11/13/2012	15875	15875	15873	15873	0
11/14/2012	15853	15853	15852	15852	0
11/15/2012	15848	15849	15848	15849	0
11/16/2012	15881	15881	15880	15880	0
11/19/2012	15901	15901	15901	15901	0
11/20/2012	15915	15915	15914	15914	0
11/21/2012	15949	15949	15948	15948	0
11/23/2012	16042	16044	16042	16044	0
11/26/2012	16018	16018	16017	16018	0
11/27/2012	16016	16017	16016	16017	0
11/28/2012	16014	16015	16014	16015	0
11/29/2012	16039	16039	16038	16038	0
11/30/2012	16023	16023	16023	16023	0
12/03/2012	16093	16093	16092	16093	0
12/04/2012	16104	16105	16104	16105	0
12/05/2012	16098	16098	16096	16097	0
12/06/2012	16048	16048	16047	16047	0
12/07/2012	16036	16036	16035	16035	0
12/10/2012	16066	16067	16066	16066	0
12/11/2012	16109	16109	16107	16108	0
12/12/2012	16156	16156	16155	16155	0
12/13/2012	16107	16108	16107	16107	0
12/14/2012	16164	16164	16164	16164	0
12/17/2012	16198	16199	16198	16199	0
12/18/2012	16245	16245	16244	16244	0
12/19/2012	16253	16255	16253	16255	0
12/20/2012	16279	16279	16278	16279	0
12/21/2012	16158	16158	16157	16157	0
12/24/2012	16128	16133	16128	16132	0
12/26/2012	16126	16126	16125	16126	0
12/27/2012	16105	16106	16105	16106	0
12/28/2012	16149	16149	16148	16148	0
12/31/2012	16240	16241	16240	16240	0
01/02/2013	16241	16242	16241	16242	0
01/03/2013	16102	16103	16102	16103	0
01/04/2013	16060	16060	16059	16059	0
01/07/2013	16101	16102	16101	16102	0
01/08/2013	16054	16054	16053	16054	0
01/09/2013	16011	16012	16011	16012	0
01/10/2013	16149	16149	16149	16149	0
01/11/2013	16119	16119	16118	16118	0
01/14/2013	16081	16083	16081	16083	0
01/15/2013	16052	16053	16052	16053	0
01/16/2013	16002	16002	16000	16001	0
01/17/2013	16005	16005	16004	16004	0
01/18/2013	15857	15859	15857	15859	0
01/22/2013	15839	15841	15839	15841	0
01/23/2013	15837	15837	15835	15836	0
01/24/2013	15787	15787	15787	15787	0
01/25/2013	15795	15795	15795	15795	0
01/28/2013	15692	15692	15692	15692	0
01/29/2013	15756	15756	15754	15754	0
01/30/2013	15786	15787	15786	15787	0
01/31/2013	15855	15855	15853	15853	0
02/01/2013	15711	15713	15711	15713	0
02/04/2013	15761	15761	15759	15759	0
02/05/2013	15657	15658	15657	15658	0
02/06/2013	15663	15663	15662	15663	0
02/07/2013	15708	15708	15707	15708	0
02/08/2013	15795	15796	15794	15794	0
02/11/2013	15658	15660	15658	15660	0
02/12/2013	15651	15651	15651	15651	0
02/13/2013	15540	15540	15539	15539	0
02/14/2013	15482	15482	15482	15482	0
02/15/2013	15513	15513	15512	15512	0
02/19/2013	15422	15422	15422	15422	0
02/20/2013	15243	15243	15242	15242	0
02/21/2013	15241	15241	15239	15239	0
02/22/2013	15238	15239	15238	15239	0
02/25/2013	15186	15187	15186	15187	0
02/26/2013	15130	15130	15129	15129	0
02/27/2013	15146	15146	15146	15146	0
02/28/2013	15172	15172	15172	15172	0
03/01/2013	15018	15018	15016	15016	0
03/04/2013	15110	15111	15110	15110	0
03/05/2013	15111	15112	15111	15112	0
03/06/2013	15040	15040	15040	15040	0
03/07/2013	15017	15017	15016	15016	0
03/08/2013	14933	14933	14932	14933	0
03/11/2013	14923	14923	14923	14923	0
03/12/2013	14901	14901	14901	14901	0
03/13/2013	14914	14915	14914	14915	0
03/14/2013	15070	15071	15069	15071	0
03/15/2013	15076	15076	15072	15072	0
03/18/2013	15093	15093	15093	15093	0
03/19/2013	15095	15095	15094	15094	0
03/20/2013	15106	15108	15106	15108	0
03/21/2013	15176	15176	15175	15175	0
03/22/2013	15223	15224	15222	15222	0
03/25/2013	15176	15176	15175	15175	0
03/26/2013	15152	15152	15151	15151	0
03/27/2013	15123	15123	15122	15122	0
03/28/2013	15166	15166	15165	15165	0
04/01/2013	15223	15224	15223	15224	0
04/02/2013	15102	15102	15101	15101	0
04/03/2013	15137	15137	15137	15137	0
04/04/2013	15229	15230	15229	15230	0
04/05/2013	15333	15333	15332	15332	0
04/08/2013	15247	15247	15246	15247	0
04/09/2013	15330	15330	15330	15330	0
04/10/2013	15310	15311	15309	15310	0
04/11/2013	15385	15385	15385	15385	0
04/12/2013	15340	15340	15338	15338	0
04/15/2013	15272	15273	15272	15273	0
04/16/2013	15364	15364	15363	15363	0
04/17/2013	15232	15232	15232	15232	0
04/18/2013	15279	15280	15279	15280	0
04/19/2013	15226	15226	15225	15225	0
04/22/2013	15274	15274	15274	15274	0
04/23/2013	15239	15239	15238	15238	0
04/24/2013	15263	15263	15263	15263	0
04/25/2013	15438	15439	15438	15439	0
04/26/2013	15481	15482	15481	15482	0
04/29/2013	15488	15488	15486	15486	0
04/30/2013	15523	15526	15523	15526	0
05/01/2013	15585	15586	15585	15586	0
05/02/2013	15526	15528	15525	15528	0
05/03/2013	15558	15560	15558	15560	0
05/06/2013	15542	15542	15542	15542	0
05/07/2013	15484	15484	15484	15484	0
05/08/2013	15538	15539	15538	15539	0
05/09/2013	15428	15428	15426	15426	0
05/10/2013	15352	15353	15352	15352	0
05/13/2013	15286	15287	15286	15287	0
05/14/2013	15218	15218	15217	15217	0
05/15/2013	15216	15217	15216	15217	0
05/16/2013	15302	15303	15302	15303	0
05/17/2013	15167	15167	15167	15167	0
05/20/2013	15267	15267	15267	15267	0
05/21/2013	15149	15149	15148	15149	0
05/22/2013	15035	15035	15034	15035	0
05/23/2013	15102	15102	15101	15102	0
05/24/2013	15112	15112	15111	15112	0
05/28/2013	15062	15062	15062	15062	0
05/29/2013	15124	15124	15122	15122	0
05/30/2013	15221	15221	15218	15218	0
05/31/2013	15182	15182	15180	15180	0
06/03/2013	15324	15325	15324	15324	0
06/04/2013	15303	15304	15303	15304	0
06/05/2013	15402	15402	15401	15401	0
06/06/2013	15608	15608	15608	15608	0
06/07/2013	15557	15558	15557	15558	0
06/10/2013	15574	15575	15574	15575	0
06/11/2013	15631	15632	15631	15632	0
06/12/2013	15669	15669	15667	15667	0
06/13/2013	15686	15687	15686	15687	0
06/14/2013	15693	15693	15693	15693	0
06/17/2013	15688	15688	15686	15686	0
06/18/2013	15641	15641	15641	15641	0
06/19/2013	15475	15477	15475	15477	0
06/20/2013	15469	15470	15469	15469	0
06/21/2013	15421	15421	15420	15420	0
06/24/2013	15436	15436	15435	15435	0
06/25/2013	15418	15419	15418	15418	0
06/26/2013	15307	15308	15306	15306	0
06/27/2013	15252	15253	15252	15253	0
06/28/2013	15202	15204	15202	15204	0
07/01/2013	15200	15200	15198	15199	0
07/02/2013	15146	15146	15144	15146	0
07/03/2013	15268	15268	15266	15266	0
07/05/2013	14895	14895	14893	14893	0
07/08/2013	14942	14942	14942	14942	0
07/09/2013	14862	14862	14862	14862	0
07/10/2013	14915	14917	14914	14917	0
07/11/2013	15183	15184	15183	15184	0
07/12/2013	15095	15096	15095	15096	0
07/15/2013	15092	15096	15092	15096	0
07/16/2013	15142	15142	15142	15142	0
07/17/2013	15202	15203	15202	15202	0
07/18/2013	15209	15211	15209	15211	0
07/19/2013	15257	15257	15255	15255	0
07/22/2013	15351	15351	15351	15351	0
07/23/2013	15385	15386	15384	15386	0
07/24/2013	15305	15307	15304	15307	0
07/25/2013	15356	15356	15355	15355	0
07/26/2013	15376	15378	15376	15378	0
07/29/2013	15351	15352	15351	15352	0
07/30/2013	15238	15238	15238	15238	0
07/31/2013	15239	15242	15238	15242	0
08/01/2013	15114	15115	15113	15115	0
08/02/2013	15278	15280	15278	15280	0
08/05/2013	15348	15348	15344	15344	0
08/06/2013	15350	15351	15350	15351	0
08/07/2013	15490	15492	15490	15492	0
08/08/2013	15544	15545	15544	15544	0
08/09/2013	15509	15509	15509	15509	0
08/12/2013	15466	15467	15466	15467	0
08/13/2013	15442	15442	15441	15442	0
08/14/2013	15501	15502	15501	15502	0
08/15/2013	15640	15640	15638	15638	0
08/16/2013	15637	15638	15637	15638	0
08/19/2013	15653	15654	15653	15654	0
08/20/2013	15674	15674	15673	15673	0
08/21/2013	15700	15700	15696	15696	0
08/22/2013	15581	15581	15581	15581	0
08/23/2013	15572	15572	15572	15572	0
08/26/2013	15575	15575	15574	15575	0
08/27/2013	15538	15539	15538	15538	0
08/28/2013	15525	15525	15525	15525	0
08/29/2013	15495	15496	15495	15496	0
08/30/2013	15493	15493	15493	15493	0
09/03/2013	15561	15562	15560	15562	0
09/04/2013	15624	15624	15622	15622	0
09/05/2013	15591	15591	15590	15590	0
09/06/2013	15633	15634	15633	15634	0
09/09/2013	15691	15693	15691	15692	0
09/10/2013	15721	15721	15720	15720	0
09/11/2013	15810	15815	15810	15815	0
09/12/2013	15801	15802	15801	15802	0
09/13/2013	15868	15869	15868	15869	0
09/16/2013	15887	15887	15887	15887	0
09/17/2013	15901	15901	15900	15900	0
09/18/2013	16090	16098	16090	16098	0
09/19/2013	16026	16026	16024	16024	0
09/20/2013	16011	16011	16010	16010	0
09/23/2013	16038	16038	16038	16038	0
09/24/2013	15997	15997	15996	15997	0
09/25/2013	16067	16068	16067	16067	0
09/26/2013	16033	16033	16032	16033	0
09/27/2013	16126	16126	16125	16125	0
09/30/2013	16177	16177	16176	16177	0
10/01/2013	16188	16188	16187	16188	0
10/02/2013	16212	16212	16211	16212	0
10/03/2013	16150	16151	16150	16151	0
10/04/2013	16019	16019	16017	16017	0
10/07/2013	16084	16084	16083	16084	0
10/08/2013	16075	16075	16073	16073	0
10/09/2013	15951	15951	15948	15948	0
10/10/2013	15970	15970	15969	15970	0
10/11/2013	15953	15953	15952	15952	0
10/14/2013	15986	15987	15986	15987	0
10/15/2013	15986	15987	15986	15987	0
10/16/2013	15938	15940	15938	15940	0
10/17/2013	16148	16151	16148	16151	0
10/18/2013	16152	16153	16152	16153	0
10/21/2013	16138	16138	16138	16138	0
10/22/2013	16232	16232	16232	16232	0
10/23/2013	16164	16164	16163	16164	0
10/24/2013	16199	16199	16198	16198	0
10/25/2013	16168	16168	16168	16168	0
10/28/2013	16153	16153	16153	16153	0
10/29/2013	16040	16041	16040	16041	0
10/30/2013	16010	16011	16010	16011	0
10/31/2013	16047	16048	16047	16048	0
11/01/2013	15922	15922	15921	15922	0
11/04/2013	15965	15965	15965	15965	0
11/05/2013	16047	16047	16044	16044	0
11/06/2013	16078	16078	16078	16078	0
11/07/2013	16083	16084	16083	16084	0
11/08/2013	15998	15998	15997	15997	0
11/11/2013	15973	15974	15973	15974	0
11/12/2013	15887	15888	15887	15887	0
11/13/2013	16019	16019	16019	16019	0
11/14/2013	16055	16055	16053	16054	0
11/15/2013	16110	16110	16108	16108	0
11/18/2013	16094	16094	16094	16094	0
11/19/2013	16114	16114	16114	16114	0
11/20/2013	16085	16087	16085	16087	0
11/21/2013	16162	16162	16160	16160	0
11/22/2013	16206	16206	16204	16204	0
11/25/2013	16145	16146	16145	16146	0
11/26/2013	16215	16217	16215	16217	0
11/27/2013	16275	16275	16275	16275	0
11/29/2013	16364	16364	16360	16360	0
12/02/2013	16351	16351	16348	16348	0
12/03/2013	16400	16400	16399	16400	0
12/04/2013	16379	16380	16377	16377	0
12/05/2013	16339	16340	16339	16340	0
12/06/2013	16343	16343	16341	16342	0
12/09/2013	16420	16420	16418	16419	0
12/10/2013	16438	16438	16437	16437	0
12/11/2013	16371	16372	16371	16372	0
12/12/2013	16337	16337	16336	16336	0
12/13/2013	16280	16282	16280	16281	0
12/16/2013	16290	16290	16290	16290	0
12/17/2013	16256	16256	16254	16254	0
12/18/2013	16420	16421	16420	16421	0
12/19/2013	16365	16365	16363	16364	0
12/20/2013	16325	16325	16324	16324	0
12/23/2013	16340	16340	16339	16340	0
12/24/2013	16367	16369	16366	16366	0
12/26/2013	16414	16414	16413	16413	0
12/27/2013	16457	16457	16453	16453	0
12/30/2013	16513	16513	16512	16512	0
12/31/2013	16557	16558	16557	16558	0
01/02/2014	16414	16414	16413	16414	0
01/03/2014	16414	16414	16413	16413	0
01/06/2014	16397	16397	16396	16397	0
01/07/2014	16399	16399	16399	16399	0
01/08/2014	16445	16445	16443	16443	0
01/09/2014	16464	16464	16463	16463	0
01/10/2014	16467	16467	16465	16465	0
01/13/2014	16381	16381	16380	16381	0
01/14/2014	16429	16429	16428	16428	0
01/15/2014	16361	16361	16361	16361	0
01/16/2014	16352	16352	16351	16351	0
01/17/2014	16415	16415	16413	16413	0
01/21/2014	16472	16473	16472	16472	0
01/22/2014	16570	16570	16570	16570	0
01/23/2014	16624	16624	16624	16624	0
01/24/2014	16499	16500	16499	16500	0
01/27/2014	16569	16569	16568	16568	0
01/28/2014	16572	16573	16571	16573	0
01/29/2014	16567	16569	16567	16569	0
01/30/2014	16472	16472	16472	16472	0
01/31/2014	16430	16430	16428	16428	0
02/03/2014	16300	16301	16300	16301	0
02/04/2014	16316	16316	16315	16315	0
02/05/2014	16307	16307	16307	16307	0
02/06/2014	16317	16317	16317	16317	0
02/07/2014	16407	16407	16407	16407	0
02/10/2014	16400	16400	16400	16400	0
02/11/2014	16444	16445	16444	16445	0
02/12/2014	16594	16594	16593	16593	0
02/13/2014	16650	16651	16650	16651	0
02/14/2014	16739	16739	16738	16739	0
02/18/2014	16682	16682	16680	16680	0
02/19/2014	16694	16694	16694	16694	0
02/20/2014	16657	16658	16657	16657	0
02/21/2014	16644	16644	16643	16643	0
02/24/2014	16664	16664	16662	16662	0
02/25/2014	16677	16677	16675	16675	0
02/26/2014	16660	16661	16660	16661	0
02/27/2014	16684	16684	16683	16683	0
02/28/2014	16756	16757	16756	16757	0
03/03/2014	16656	16658	16656	16658	0
03/04/2014	16672	16672	16671	16672	0
03/05/2014	16716	16716	16713	16713	0
03/06/2014	16739	16739	16738	16738	0
03/07/2014	16725	16725	16725	16725	0
03/10/2014	16628	16628	16628	16628	0
03/11/2014	16615	16615	16615	16615	0
03/12/2014	16603	16603	16603	16603	0
03/13/2014	16605	16605	16604	16604	0
03/14/2014	16622	16622	16619	16619	0
03/17/2014	16626	16626	16626	16626	0
03/18/2014	16574	16575	16574	16575	0
03/19/2014	16526	16526	16521	16521	0
03/20/2014	16494	16494	16493	16493	0
03/21/2014	16485	16485	16484	16484	0
03/24/2014	16484	16484	16484	16484	0
03/25/2014	16523	16523	16521	16521	0
03/26/2014	16564	16565	16563	16565	0
03/27/2014	16608	16608	16606	16606	0
03/28/2014	16636	16636	16635	16635	0
03/31/2014	16663	16663	16662	16662	0
04/01/2014	16621	16621	16620	16620	0
04/02/2014	16617	16617	16616	16616	0
04/03/2014	16579	16579	16579	16579	0
04/04/2014	16569	16570	16569	16570	0
04/07/2014	16600	16601	16600	16601	0
04/08/2014	16739	16739	16739	16739	0
04/09/2014	16786	16786	16784	16785	0
04/10/2014	16780	16780	16779	16779	0
04/11/2014	16739	16739	16738	16738	0
04/14/2014	16720	16720	16719	16719	0
04/15/2014	16713	16713	16712	16712	0
04/16/2014	16792	16792	16790	16790	0
04/17/2014	16789	16791	16789	16791	0
04/21/2014	16792	16793	16792	16793	0
04/22/2014	16816	16816	16815	16815	0
04/23/2014	16776	16776	16774	16774	0
04/24/2014	16792	16792	16792	16792	0
04/25/2014	16795	16795	16793	16794	0
04/28/2014	16806	16806	16806	16806	0
04/29/2014	16824	16825	16824	16825	0
04/30/2014	16882	16882	16881	16881	0
05/01/2014	16888	16889	16888	16889	0
05/02/2014	16864	16864	16864	16864	0
05/05/2014	16864	16864	16863	16864	0
05/06/2014	16980	16981	16980	16980	0
05/07/2014	16954	16955	16954	16955	0
05/08/2014	16941	16941	16939	16939	0
05/09/2014	16835	16838	16835	16838	0
05/12/2014	16860	16861	16860	16861	0
05/13/2014	16818	16818	16817	16818	0
05/14/2014	16767	16767	16766	16766	0
05/15/2014	16790	16791	16790	16791	0
05/16/2014	16817	16817	16817	16817	0
05/19/2014	16815	16815	16814	16814	0
05/20/2014	16836	16836	16836	16836	0
05/21/2014	16893	16893	16892	16893	0
05/22/2014	16863	16863	16862	16862	0
05/23/2014	16816	16816	16815	16816	0
05/27/2014	16808	16808	16808	16808	0
05/28/2014	16707	16707	16706	16707	0
05/29/2014	16719	16719	16719	16719	0
05/30/2014	16762	16762	16762	16762	0
06/02/2014	16745	16745	16744	16744	0
06/03/2014	16745	16745	16744	16744	0
06/04/2014	16741	16742	16740	16742	0
06/05/2014	16813	16814	16813	16814	0
06/06/2014	16812	16812	16810	16810	0
06/09/2014	16782	16783	16782	16782	0
06/10/2014	16743	16743	16742	16742	0
06/11/2014	16781	16781	16780	16781	0
06/12/2014	16825	16825	16825	16825	0
06/13/2014	16955	16955	16955	16955	0
06/16/2014	16966	16966	16965	16965	0
06/17/2014	16942	16943	16942	16943	0
06/18/2014	16944	16944	16942	16942	0
06/19/2014	17030	17031	17030	17031	0
06/20/2014	17002	17002	17001	17001	0
06/23/2014	17012	17012	17011	17011	0
06/24/2014	16971	16972	16971	16972	0
06/25/2014	16968	16969	16968	16969	0
06/26/2014	17014	17014	17014	17014	0
06/27/2014	17011	17011	17011	17011	0
06/30/2014	17095	17095	17095	17095	0
07/01/2014	17141	17141	17141	17141	0
07/02/2014	17153	17153	17153	17153	0
07/03/2014	17139	17140	17139	17139	0
07/07/2014	17122	17122	17121	17122	0
07/08/2014	17120	17120	17119	17119	0
07/09/2014	17147	17149	17147	17149	0
07/10/2014	17134	17134	17133	17133	0
07/11/2014	17109	17109	17108	17108	0
07/14/2014	17072	17072	17072	17072	0
07/15/2014	17139	17139	17138	17138	0
07/16/2014	17128	17128	17126	17126	0
07/17/2014	17103	17104	17103	17104	0
07/18/2014	17085	17086	17085	17086	0
07/21/2014	17067	17067	17066	17066	0
07/22/2014	17052	17053	17052	17052	0
07/23/2014	17022	17022	17021	17021	0
07/24/2014	16977	16977	16976	16977	0
07/25/2014	16970	16970	16969	16969	0
07/28/2014	16974	16974	16973	16973	0
07/29/2014	16938	16938	16938	16938	0
07/30/2014	16910	16910	16909	16909	0
07/31/2014	16878	16878	16876	16876	0
08/01/2014	16826	16826	16825	16825	0
08/04/2014	16847	16847	16846	16847	0
08/05/2014	16869	16869	16869	16869	0
08/06/2014	16840	16840	16840	16840	0
08/07/2014	16829	16829	16828	16829	0
08/08/2014	16771	16771	16770	16770	0
08/11/2014	16782	16782	16781	16781	0
08/12/2014	16807	16808	16807	16808	0
08/13/2014	16683	16683	16683	16683	0
08/14/2014	16681	16681	16680	16681	0
08/15/2014	16693	16694	16692	16693	0
08/18/2014	16724	16724	16723	16723	0
08/19/2014	16616	16616	16615	16615	0
08/20/2014	16596	16596	16595	16595	0
08/21/2014	16584	16584	16583	16583	0
08/22/2014	16575	16575	16574	16574	0
08/25/2014	16577	16577	16576	16576	0
08/26/2014	16546	16546	16545	16545	0
08/27/2014	16579	16580	16579	16579	0
08/28/2014	16583	16584	16583	16584	0
08/29/2014	16563	16563	16561	16561	0
09/02/2014	16471	16472	16471	16472	0
09/03/2014	16454	16454	16453	16453	0
09/04/2014	16332	16332	16331	16331	0
09/05/2014	16330	16330	16329	16329	0
09/08/2014	16105	16105	16102	16102	0
09/09/2014	16077	16077	16076	16076	0
09/10/2014	16187	16187	16187	16187	0
09/11/2014	16210	16210	16207	16207	0
09/12/2014	16243	16245	16243	16244	0
09/15/2014	16214	16214	16213	16213	0
09/16/2014	16264	16266	16264	16266	0
09/17/2014	16277	16279	16277	16279	0
09/18/2014	16362	16362	16362	16362	0
09/19/2014	16299	16300	16298	16300	0
09/22/2014	16345	16345	16345	16345	0
09/23/2014	16394	16394	16393	16393	0
09/24/2014	16327	16327	16326	16327	0
09/25/2014	16301	16301	16300	16300	0
09/26/2014	16240	16241	16240	16241	0
09/29/2014	16240	16240	16240	16240	0
09/30/2014	16192	16192	16190	16191	0
10/01/2014	16164	16165	16164	16165	0
10/02/2014	16136	16136	16136	16136	0
10/03/2014	15953	15954	15953	15953	0
10/06/2014	16051	16051	16050	16051	0
10/07/2014	16085	16087	16085	16087	0
10/08/2014	16152	16152	16151	16151	0
10/09/2014	16110	16111	16110	16111	0
10/10/2014	16044	16045	16044	16045	0
10/13/2014	16052	16052	16050	16050	0
10/14/2014	15898	15900	15898	15900	0
10/15/2014	15922	15923	15922	15922	0
10/16/2014	16056	16056	16053	16053	0
10/17/2014	16101	16102	16101	16102	0
10/20/2014	16162	16162	16161	16161	0
10/21/2014	16113	16113	16113	16113	0
10/22/2014	16039	16043	16039	16043	0
10/23/2014	16022	16022	16022	16022	0
10/24/2014	16071	16071	16070	16070	0
10/27/2014	16123	16123	16122	16122	0
10/28/2014	16124	16124	16123	16123	0
10/29/2014	16013	16013	16013	16013	0
10/30/2014	15997	15997	15997	15997	0
10/31/2014	15987	15987	15985	15985	0
11/03/2014	15970	15971	15970	15971	0
11/04/2014	15997	15997	15997	15997	0
11/05/2014	15972	15972	15972	15972	0
11/06/2014	15833	15833	15833	15833	0
11/07/2014	15860	15860	15860	15860	0
11/10/2014	15847	15847	15847	15847	0
11/11/2014	15884	15884	15882	15882	0
11/12/2014	15776	15777	15776	15777	0
11/13/2014	15716	15716	15715	15715	0
11/14/2014	15676	15677	15676	15677	0
11/17/2014	15637	15638	15637	15638	0
11/18/2014	15634	15634	15632	15632	0
11/19/2014	15676	15676	15675	15675	0
11/20/2014	15696	15697	15696	15696	0
11/21/2014	15645	15645	15643	15643	0
11/24/2014	15696	15696	15694	15694	0
11/25/2014	15706	15706	15706	15706	0
11/26/2014	15798	15798	15796	15796	0
11/28/2014	15617	15617	15616	15617	0
12/01/2014	15739	15739	15739	15739	0
12/02/2014	15636	15636	15636	15636	0
12/03/2014	15687	15687	15684	15684	0
12/04/2014	15672	15672	15672	15672	0
12/05/2014	15579	15580	15579	15580	0
12/08/2014	15653	15653	15652	15652	0
12/09/2014	15654	15654	15653	15653	0
12/10/2014	15693	15693	15692	15693	0
12/11/2014	15690	15691	15690	15690	0
12/12/2014	15696	15696	15695	15696	0
12/15/2014	15629	15631	15629	15631	0
12/16/2014	15721	15721	15719	15719	0
12/17/2014	15547	15549	15542	15542	0
12/18/2014	15661	15661	15661	15661	0
12/19/2014	15624	15624	15624	15624	0
12/22/2014	15586	15586	15583	15583	0
12/23/2014	15509	15510	15508	15510	0
12/24/2014	15546	15546	15544	15544	0
12/26/2014	15551	15551	15550	15551	0
12/29/2014	15511	15512	15511	15512	0
12/30/2014	15551	15551	15548	15548	0
12/31/2014	15570	15571	15570	15570	0
01/02/2015	15327	15327	15326	15326	0
01/05/2015	15246	15246	15245	15246	0
01/06/2015	15154	15154	15153	15154	0
01/07/2015	15113	15114	15113	15114	0
01/08/2015	15072	15075	15072	15075	0
01/09/2015	15158	15158	15156	15157	0
01/12/2015	15172	15172	15172	15172	0
01/13/2015	15138	15139	15138	15139	0
01/14/2015	15214	15215	15214	15214	0
01/15/2015	15178	15178	15176	15176	0
01/16/2015	15156	15160	15156	15160	0
01/20/2015	15149	15151	15149	15151	0
01/21/2015	15118	15118	15117	15117	0
01/22/2015	15011	15012	15011	15012	0
01/23/2015	15012	15012	15011	15011	0
01/26/2015	15073	15073	15071	15071	0
01/27/2015	15199	15199	15196	15196	0
01/28/2015	15152	15154	15152	15153	0
01/29/2015	15042	15043	15042	15043	0
01/30/2015	15055	15055	15053	15053	0
02/02/2015	15033	15033	15032	15032	0
02/03/2015	15164	15164	15162	15162	0
02/04/2015	15221	15221	15220	15220	0
02/05/2015	15326	15327	15326	15327	0
02/06/2015	15227	15229	15227	15229	0
02/09/2015	15229	15230	15228	15230	0
02/10/2015	15249	15252	15249	15251	0
02/11/2015	15243	15245	15243	15244	0
02/12/2015	15405	15405	15403	15405	0
02/13/2015	15392	15392	15389	15389	0
02/17/2015	15360	15361	15360	15361	0
02/18/2015	15437	15437	15433	15433	0
02/19/2015	15407	15410	15406	15410	0
02/20/2015	15392	15394	15392	15394	0
02/23/2015	15454	15454	15452	15452	0
02/24/2015	15451	15452	15451	15452	0
02/25/2015	15527	15528	15526	15526	0
02/26/2015	15408	15408	15405	15405	0
02/27/2015	15437	15437	15436	15436	0
03/02/2015	15364	15364	15361	15361	0
03/03/2015	15365	15365	15364	15364	0
03/04/2015	15257	15260	15256	15260	0
03/05/2015	15237	15238	15237	15238	0
03/06/2015	15048	15049	15047	15048	0
03/09/2015	15121	15122	15121	15121	0
03/10/2015	15064	15065	15064	15064	0
03/11/2015	14923	14924	14923	14924	0
03/12/2015	14841	14841	14840	14841	0
03/13/2015	14713	14714	14712	14713	0
03/16/2015	14827	14828	14825	14825	0
03/17/2015	14746	14746	14745	14745	0
03/18/2015	14860	14860	14854	14854	0
03/19/2015	14711	14712	14709	14712	0
03/20/2015	14933	14934	14933	14934	0
03/23/2015	14931	14932	14931	14932	0
03/24/2015	14836	14836	14835	14836	0
03/25/2015	14861	14861	14858	14858	0
03/26/2015	14832	14832	14830	14831	0
03/27/2015	14867	14869	14867	14868	0
03/30/2015	14807	14807	14807	14807	0
03/31/2015	14838	14838	14836	14837	0
04/01/2015	14818	14820	14818	14820	0
04/02/2015	14818	14818	14817	14817	0
04/06/2015	14915	14915	14914	14914	0
04/07/2015	14822	14822	14821	14822	0
04/08/2015	14878	14878	14875	14875	0
04/09/2015	14686	14686	14685	14686	0
04/10/2015	14644	14644	14643	14643	0
04/13/2015	14669	14670	14669	14670	0
04/14/2015	14772	14773	14772	14773	0
04/15/2015	14839	14840	14839	14840	0
04/16/2015	14949	14951	14949	14951	0
04/17/2015	14953	14955	14953	14954	0
04/20/2015	14895	14896	14895	14896	0
04/21/2015	14919	14919	14918	14918	0
04/22/2015	15041	15041	15040	15040	0
04/23/2015	15052	15052	15049	15049	0
04/24/2015	15170	15171	15170	15171	0
04/27/2015	15220	15220	15218	15218	0
04/28/2015	15331	15332	15331	15331	0
04/29/2015	15426	15426	15424	15426	0
04/30/2015	15356	15356	15354	15354	0
05/01/2015	15123	15127	15123	15127	0
05/04/2015	15115	15117	15115	15117	0
05/05/2015	15171	15171	15170	15170	0
05/06/2015	15240	15241	15239	15239	0
05/07/2015	15254	15254	15254	15254	0
05/08/2015	15445	15448	15445	15448	0
05/11/2015	15586	15587	15586	15586	0
05/12/2015	15673	15674	15673	15674	0
05/13/2015	15746	15746	15745	15745	0
05/14/2015	15762	15763	15762	15763	0
05/15/2015	15746	15749	15746	15749	0
05/18/2015	15654	15654	15652	15654	0
05/19/2015	15495	15495	15494	15494	0
05/20/2015	15543	15544	15543	15543	0
05/21/2015	15672	15672	15670	15670	0
05/22/2015	15484	15485	15484	15485	0
05/26/2015	15380	15382	15380	15382	0
05/27/2015	15335	15335	15334	15335	0
05/28/2015	15316	15321	15316	15321	0
05/29/2015	15288	15289	15287	15289	0
06/01/2015	15202	15203	15202	15203	0
06/02/2015	15347	15348	15346	15348	0
06/03/2015	15312	15313	15312	15313	0
06/04/2015	15368	15369	15367	15368	0
06/05/2015	15277	15277	15275	15275	0
06/08/2015	15324	15324	15322	15322	0
06/09/2015	15365	15365	15363	15363	0
06/10/2015	15516	15516	15515	15516	0
06/11/2015	15508	15508	15508	15508	0
06/12/2015	15543	15543	15543	15543	0
06/15/2015	15597	15597	15596	15596	0
06/16/2015	15638	15638	15638	15638	0
06/17/2015	15819	15819	15819	15819	0
06/18/2015	15863	15863	15862	15863	0
06/19/2015	15871	15871	15871	15871	0
06/22/2015	15824	15824	15821	15821	0
06/23/2015	15705	15706	15705	15706	0
06/24/2015	15698	15698	15693	15693	0
06/25/2015	15725	15725	15724	15724	0
06/26/2015	15724	15724	15723	15723	0
06/29/2015	15729	15729	15728	15728	0
06/30/2015	15726	15726	15725	15725	0
07/01/2015	15594	15594	15593	15593	0
07/02/2015	15594	15594	15592	15592	0
07/06/2015	15597	15597	15596	15596	0
07/07/2015	15437	15437	15436	15436	0
07/08/2015	15347	15347	15346	15347	0
07/09/2015	15357	15357	15356	15356	0
07/10/2015	15498	15499	15497	15497	0
07/13/2015	15479	15479	15476	15476	0
07/14/2015	15622	15624	15622	15624	0
07/15/2015	15625	15625	15623	15623	0
07/16/2015	15599	15599	15599	15599	0
07/17/2015	15605	15606	15605	15606	0
07/20/2015	15563	15563	15562	15562	0
07/21/2015	15549	15549	15548	15548	0
07/22/2015	15591	15593	15591	15593	0
07/23/2015	15508	15508	15507	15507	0
07/24/2015	15506	15506	15505	15505	0
07/27/2015	15552	15552	15551	15551	0
07/28/2015	15595	15595	15591	15591	0
07/29/2015	15608	15610	15608	15610	0
07/30/2015	15595	15595	15594	15595	0
07/31/2015	15611	15611	15610	15610	0
08/03/2015	15575	15578	15575	15578	0
08/04/2015	15563	15563	15563	15563	0
08/05/2015	15595	15595	15593	15593	0
08/06/2015	15513	15513	15513	15513	0
08/07/2015	15489	15491	15489	15490	0
08/10/2015	15599	15600	15599	15600	0
08/11/2015	15559	15559	15557	15557	0
08/12/2015	15609	15610	15609	15610	0
08/13/2015	15611	15611	15610	15611	0
08/14/2015	15649	15650	15649	15649	0
08/17/2015	15584	15584	15582	15582	0
08/18/2015	15661	15662	15661	15661	0
08/19/2015	15687	15689	15687	15688	0
08/20/2015	15674	15675	15674	15675	0
08/21/2015	15699	15699	15696	15696	0
08/24/2015	15773	15774	15773	15774	0
08/25/2015	15683	15683	15683	15683	0
08/26/2015	15469	15470	15466	15466	0
08/27/2015	15423	15424	15423	15423	0
08/28/2015	15388	15390	15388	15390	0
08/31/2015	15349	15349	15348	15348	0
09/01/2015	15305	15307	15305	15306	0
09/02/2015	15304	15304	15300	15300	0
09/03/2015	15257	15257	15256	15256	0
09/04/2015	15182	15184	15182	15184	0
09/08/2015	15391	15394	15391	15394	0
09/09/2015	15364	15365	15364	15365	0
09/10/2015	15468	15469	15468	15468	0
09/11/2015	15418	15419	15418	15419	0
09/14/2015	15423	15427	15423	15427	0
09/15/2015	15324	15324	15324	15324	0
09/16/2015	15481	15481	15480	15481	0
09/17/2015	15614	15614	15608	15608	0
09/18/2015	15547	15547	15545	15545	0
09/21/2015	15496	15498	15496	15498	0
09/22/2015	15361	15361	15360	15360	0
09/23/2015	15254	15255	15254	15254	0
09/24/2015	15227	15228	15227	15228	0
09/25/2015	15186	15187	15185	15187	0
09/28/2015	15168	15168	15166	15166	0
09/29/2015	15151	15152	15151	15152	0
09/30/2015	15115	15115	15113	15113	0
10/01/2015	15125	15126	15125	15126	0
10/02/2015	15187	15187	15184	15184	0
10/05/2015	15148	15148	15147	15148	0
10/06/2015	15223	15224	15223	15224	0
10/07/2015	15315	15315	15313	15313	0
10/08/2015	15350	15350	15348	15348	0
10/09/2015	15333	15333	15333	15333	0
10/12/2015	15354	15354	15353	15354	0
10/13/2015	15248	15248	15247	15247	0
10/14/2015	15473	15477	15473	15477	0
10/15/2015	15487	15487	15486	15487	0
10/16/2015	15451	15453	15451	15453	0
10/19/2015	15464	15464	15463	15463	0
10/20/2015	15435	15436	15435	15436	0
10/21/2015	15419	15419	15417	15417	0
10/22/2015	15382	15383	15382	15383	0
10/23/2015	15315	15316	15314	15316	0
10/26/2015	15351	15351	15347	15347	0
10/27/2015	15297	15297	15296	15296	0
10/28/2015	15246	15246	15246	15246	0
10/29/2015	15313	15313	15312	15312	0
10/30/2015	15425	15425	15422	15422	0
11/02/2015	15406	15408	15406	15408	0
11/03/2015	15433	15433	15432	15433	0
11/04/2015	15374	15376	15374	15376	0
11/05/2015	15208	15208	15205	15205	0
11/06/2015	15037	15037	15036	15036	0
11/09/2015	15111	15111	15109	15109	0
11/10/2015	15102	15103	15102	15103	0
11/11/2015	15194	15195	15194	15194	0
11/12/2015	15216	15216	15216	15216	0
11/13/2015	15226	15228	15226	15227	0
11/16/2015	15195	15195	15194	15195	0
11/17/2015	15207	15208	15207	15208	0
11/18/2015	15226	15227	15225	15227	0
11/19/2015	15287	15290	15287	15290	0
11/20/2015	15191	15191	15190	15190	0
11/23/2015	15116	15116	15114	15114	0
11/24/2015	15087	15088	15087	15088	0
11/25/2015	15127	15127	15125	15125	0
11/27/2015	15049	15050	15049	15049	0
11/30/2015	15062	15062	15059	15059	0
12/01/2015	15080	15081	15080	15081	0
12/02/2015	14937	14937	14937	14937	0
12/03/2015	15148	15150	15147	15150	0
12/04/2015	15100	15102	15100	15102	0
12/07/2015	15062	15062	15060	15061	0
12/08/2015	14998	14998	14994	14995	0
12/09/2015	15167	15167	15164	15164	0
12/10/2015	15154	15154	15154	15154	0
12/11/2015	15231	15232	15231	15231	0
12/14/2015	15142	15142	15141	15142	0
12/15/2015	15043	15044	15043	15044	0
12/16/2015	15072	15072	15067	15067	0
12/17/2015	14891	14891	14889	14889	0
12/18/2015	14914	14916	14914	14915	0
12/21/2015	14892	14892	14889	14889	0
12/22/2015	14816	14817	14816	14817	0
12/23/2015	14874	14875	14874	14874	0
12/24/2015	14930	14933	14930	14931	0
12/28/2015	14886	14888	14886	14888	0
12/29/2015	14829	14831	14829	14831	0
12/30/2015	14828	14832	14827	14832	0
12/31/2015	14736	14736	14734	14734	0
01/04/2016	14711	14713	14711	14713	0
01/05/2016	14666	14666	14665	14665	0
01/06/2016	14628	14628	14627	14628	0
01/07/2016	14615	14616	14614	14616	0
01/08/2016	14515	14517	14515	14517	0
01/11/2016	14547	14547	14546	14547	0
01/12/2016	14435	14435	14432	14432	0
01/13/2016	14446	14446	14445	14445	0
01/14/2016	14406	14406	14405	14405	0
01/15/2016	14263	14263	14262	14262	0
01/19/2016	14176	14177	14176	14177	0
01/20/2016	14157	14157	14154	14154	0
01/21/2016	14218	14218	14217	14217	0
01/22/2016	14282	14282	14281	14281	0
01/25/2016	14258	14258	14256	14256	0
01/26/2016	14358	14359	14358	14359	0
01/27/2016	14252	14252	14250	14250	0
01/28/2016	14366	14366	14364	14364	0
01/29/2016	14242	14242	14241	14242	0
02/01/2016	14441	14443	14441	14443	0
02/02/2016	14417	14417	14414	14414	0
02/03/2016	14599	14601	14599	14601	0
02/04/2016	14600	14600	14599	14599	0
02/05/2016	14497	14499	14497	14499	0
02/08/2016	14439	14440	14439	14440	0
02/09/2016	14456	14456	14455	14455	0
02/10/2016	14530	14532	14530	14531	0
02/11/2016	14468	14471	14468	14471	0
02/12/2016	14519	14520	14519	14519	0
02/16/2016	14285	14285	14285	14285	0
02/17/2016	14285	14288	14285	14288	0
02/18/2016	14319	14319	14317	14317	0
02/19/2016	14359	14361	14359	14361	0
02/22/2016	14153	14153	14152	14153	0
02/23/2016	14018	14018	14017	14018	0
02/24/2016	13915	13915	13915	13915	0
02/25/2016	13979	13979	13976	13976	0
02/26/2016	13862	13863	13862	13863	0
02/29/2016	13916	13916	13916	13916	0
03/01/2016	13955	13956	13953	13953	0
03/02/2016	14077	14077	14074	14075	0
03/03/2016	14172	14173	14172	14173	0
03/04/2016	14213	14215	14213	14215	0
03/07/2016	14264	14264	14263	14264	0
03/08/2016	14218	14218	14217	14217	0
03/09/2016	14225	14227	14225	14227	0
03/10/2016	14288	14288	14287	14287	0
03/11/2016	14387	14390	14387	14390	0
03/14/2016	14302	14302	14301	14301	0
03/15/2016	14156	14160	14156	14160	0
03/16/2016	14224	14228	14224	14228	0
03/17/2016	14484	14484	14483	14483	0
03/18/2016	14475	14480	14475	14480	0
03/21/2016	14393	14396	14393	14396	0
03/22/2016	14208	14209	14207	14207	0
03/23/2016	14119	14119	14118	14118	0
03/24/2016	14153	14154	14153	14154	0
03/28/2016	14254	14255	14254	14254	0
03/29/2016	14380	14381	14380	14380	0
03/30/2016	14386	14389	14386	14389	0
03/31/2016	14372	14373	14372	14373	0
04/01/2016	14217	14217	14216	14217	0
04/04/2016	14277	14283	14277	14283	0
04/05/2016	14159	14159	14158	14158	0
04/06/2016	14128	14130	14128	14129	0
04/07/2016	14057	14063	14057	14063	0
04/08/2016	14121	14123	14120	14123	0
04/11/2016	14247	14247	14244	14244	0
04/12/2016	14276	14278	14276	14278	0
04/13/2016	14211	14214	14210	14214	0
04/14/2016	14152	14154	14152	14154	0
04/15/2016	14206	14206	14204	14205	0
04/18/2016	14279	14280	14278	14278	0
04/19/2016	14405	14406	14405	14406	0
04/20/2016	14367	14368	14367	14368	0
04/21/2016	14326	14327	14326	14327	0
04/22/2016	14410	14410	14408	14408	0
04/25/2016	14481	14482	14479	14479	0
04/26/2016	14578	14580	14578	14580	0
04/27/2016	14542	14543	14541	14541	0
04/28/2016	14611	14611	14611	14611	0
04/29/2016	14611	14613	14611	14613	0
05/02/2016	14666	14668	14666	14668	0
05/03/2016	14544	14544	14543	14543	0
05/04/2016	14500	14501	14500	14501	0
05/05/2016	14478	14478	14478	14478	0
05/06/2016	14422	14422	14420	14421	0
05/09/2016	14412	14413	14412	14413	0
05/10/2016	14436	14437	14436	14436	0
05/11/2016	14453	14454	14453	14454	0
05/12/2016	14453	14454	14453	14454	0
05/13/2016	14369	14369	14368	14368	0
05/16/2016	14393	14393	14391	14391	0
05/17/2016	14457	14457	14457	14457	0
05/18/2016	14597	14598	14597	14598	0
05/19/2016	14616	14618	14616	14618	0
05/20/2016	14506	14506	14506	14506	0
05/23/2016	14489	14489	14487	14487	0
05/24/2016	14628	14632	14628	14632	0
05/25/2016	14725	14725	14722	14722	0
05/26/2016	14665	14665	14665	14665	0
05/27/2016	14636	14637	14636	14637	0
05/31/2016	14467	14467	14466	14467	0
06/01/2016	14406	14406	14406	14406	0
06/02/2016	14428	14429	14428	14429	0
06/03/2016	14515	14516	14515	14515	0
06/06/2016	14458	14459	14458	14459	0
06/07/2016	14552	14552	14551	14552	0
06/08/2016	14503	14504	14503	14504	0
06/09/2016	14481	14483	14481	14483	0
06/10/2016	14266	14269	14265	14269	0
06/13/2016	14235	14235	14233	14233	0
06/14/2016	14112	14112	14111	14112	0
06/15/2016	14187	14187	14184	14185	0
06/16/2016	14217	14218	14216	14216	0
06/17/2016	14354	14360	14354	14360	0
06/20/2016	14700	14702	14700	14702	0
06/21/2016	14670	14673	14670	14673	0
06/22/2016	14697	14698	14697	14697	0
06/23/2016	14813	14814	14813	14813	0
06/24/2016	13671	13673	13660	13660	0
06/27/2016	13187	13190	13187	13190	0
06/28/2016	13355	13356	13354	13354	0
06/29/2016	13437	13437	13432	13432	0
06/30/2016	13249	13249	13245	13248	0
07/01/2016	13291	13294	13291	13293	0
07/05/2016	13040	13040	13036	13037	0
07/06/2016	12934	12935	12934	12935	0
07/07/2016	12906	12907	12905	12906	0
07/08/2016	12962	12962	12959	12959	0
07/11/2016	13015	13015	13014	13014	0
07/12/2016	13280	13280	13278	13278	0
07/13/2016	13168	13169	13168	13169	0
07/14/2016	13337	13339	13337	13338	0
07/15/2016	13213	13213	13211	13211	0
07/18/2016	13267	13267	13266	13267	0
07/19/2016	13094	13098	13093	13098	0
07/20/2016	13162	13162	13157	13157	0
07/21/2016	13210	13212	13210	13212	0
07/22/2016	13099	13101	13099	13100	0
07/25/2016	13134	13136	13134	13136	0
07/26/2016	13144	13144	13143	13143	0
07/27/2016	13200	13201	13198	13198	0
07/28/2016	13157	13160	13157	13160	0
07/29/2016	13250	13250	13247	13247	0
08/01/2016	13197	13200	13196	13200	0
08/02/2016	13359	13360	13357	13357	0
08/03/2016	13325	13325	13325	13325	0
08/04/2016	13124	13124	13124	13124	0
08/05/2016	13091	13091	13089	13090	0
08/08/2016	13048	13048	13047	13047	0
08/09/2016	13006	13009	13006	13009	0
08/10/2016	13020	13020	13020	13020	0
08/11/2016	12975	12976	12975	12976	0
08/12/2016	12925	12925	12924	12924	0
08/15/2016	12880	12880	12880	12880	0
08/16/2016	13042	13043	13042	13043	0
08/17/2016	13050	13050	13049	13050	0
08/18/2016	13155	13156	13153	13154	0
08/19/2016	13084	13085	13084	13085	0
08/22/2016	13143	13143	13141	13141	0
08/23/2016	13200	13200	13199	13199	0
08/24/2016	13234	13236	13234	13235	0
08/25/2016	13175	13175	13174	13175	0
