11/16/2011	135110	135110	135100	135110	0
11/17/2011	134640	134640	134630	134640	0
11/18/2011	135120	135130	135120	135130	0
11/21/2011	135020	135020	134960	134960	0
11/22/2011	135090	135090	135060	135060	0
11/23/2011	133300	133300	133280	133280	0
11/25/2011	132410	132410	132390	132390	0
11/28/2011	133030	133030	133020	133030	0
11/29/2011	133300	133300	133290	133300	0
11/30/2011	134360	134360	134360	134360	0
12/01/2011	134540	134560	134540	134560	0
12/02/2011	134030	134040	134020	134040	0
12/05/2011	134000	134010	134000	134000	0
12/06/2011	134110	134110	134100	134100	0
12/07/2011	133980	133980	133960	133960	0
12/08/2011	133350	133360	133350	133360	0
12/09/2011	133720	133720	133710	133710	0
12/12/2011	132000	132010	132000	132000	0
12/13/2011	130570	130570	130550	130550	0
12/14/2011	129970	129970	129940	129940	0
12/15/2011	130260	130260	130250	130250	0
12/16/2011	130370	130370	130370	130370	0
12/19/2011	130260	130260	130250	130260	0
12/20/2011	130840	130840	130830	130840	0
12/21/2011	130590	130590	130570	130570	0
12/22/2011	130580	130580	130580	130580	0
12/23/2011	130710	130710	130710	130710	0
12/27/2011	130820	130830	130820	130830	0
12/28/2011	129540	129540	129530	129530	0
12/29/2011	129480	129480	129470	129470	0
12/30/2011	129710	129710	129680	129680	0
01/03/2012	130620	130630	130620	130630	0
01/04/2012	129450	129450	129440	129440	0
01/05/2012	127950	127950	127920	127920	0
01/06/2012	127290	127290	127280	127290	0
01/09/2012	127610	127610	127610	127610	0
01/10/2012	127940	127950	127940	127950	0
01/11/2012	127020	127020	127000	127000	0
01/12/2012	128320	128320	128310	128320	0
01/13/2012	126750	126750	126720	126720	0
01/17/2012	127240	127240	127230	127240	0
01/18/2012	128410	128410	128400	128400	0
01/19/2012	129350	129370	129350	129370	0
01/20/2012	129260	129260	129250	129250	0
01/23/2012	130210	130210	130200	130200	0
01/24/2012	130250	130250	130240	130250	0
01/25/2012	130870	130870	130870	130870	0
01/26/2012	131090	131100	131090	131100	0
01/27/2012	132090	132090	132070	132070	0
01/30/2012	131250	131260	131250	131260	0
01/31/2012	130870	130870	130860	130860	0
02/01/2012	131590	131590	131580	131580	0
02/02/2012	131430	131430	131430	131430	0
02/03/2012	131540	131540	131540	131540	0
02/06/2012	131250	131250	131250	131250	0
02/07/2012	132470	132480	132460	132480	0
02/08/2012	132550	132550	132530	132530	0
02/09/2012	132920	132920	132900	132900	0
02/10/2012	131720	131720	131720	131720	0
02/13/2012	132070	132070	132050	132050	0
02/14/2012	130930	130940	130930	130940	0
02/15/2012	130650	130650	130630	130630	0
02/16/2012	131400	131410	131400	131410	0
02/17/2012	131590	131590	131590	131590	0
02/21/2012	132460	132470	132460	132470	0
02/22/2012	132450	132450	132450	132450	0
02/23/2012	133350	133360	133350	133360	0
02/24/2012	134580	134600	134580	134600	0
02/27/2012	134000	134000	133980	133980	0
02/28/2012	134570	134580	134570	134580	0
02/29/2012	133380	133390	133380	133390	0
03/01/2012	133160	133160	133160	133160	0
03/02/2012	132060	132060	132060	132060	0
03/05/2012	132270	132270	132270	132270	0
03/06/2012	131060	131060	131060	131060	0
03/07/2012	131490	131490	131490	131490	0
03/08/2012	132720	132730	132720	132730	0
03/09/2012	131070	131070	131060	131070	0
03/12/2012	131560	131560	131560	131560	0
03/13/2012	130820	130820	130800	130800	0
03/14/2012	130300	130300	130290	130290	0
03/15/2012	131050	131050	131020	131020	0
03/16/2012	131790	131790	131790	131790	0
03/19/2012	132450	132450	132450	132450	0
03/20/2012	132450	132450	132350	132360	0
03/21/2012	132090	132100	132090	132100	0
03/22/2012	131880	131880	131880	131880	0
03/23/2012	132690	132700	132690	132700	0
03/26/2012	133480	133490	133480	133490	0
03/27/2012	133420	133420	133410	133410	0
03/28/2012	133270	133280	133270	133280	0
03/29/2012	132930	132930	132920	132920	0
03/30/2012	133430	133430	133390	133390	0
04/02/2012	133370	133380	133360	133380	0
04/03/2012	132190	132200	132190	132200	0
04/04/2012	131440	131440	131410	131410	0
04/05/2012	130670	130680	130670	130680	0
04/06/2012	130670	130870	130670	130870	0
04/09/2012	131290	131290	131270	131270	0
04/10/2012	130840	130840	130820	130820	0
04/11/2012	131050	131050	131040	131040	0
04/12/2012	132030	132030	132000	132000	0
04/13/2012	130850	130850	130830	130830	0
04/16/2012	131390	131390	131390	131390	0
04/17/2012	131440	131440	131430	131430	0
04/18/2012	131320	131320	131300	131300	0
04/19/2012	131360	131360	131340	131360	0
04/20/2012	132170	132190	132170	132190	0
04/23/2012	131490	131490	131480	131480	0
04/24/2012	131930	131930	131920	131930	0
04/25/2012	132270	132320	132270	132320	0
04/26/2012	132410	132410	132410	132410	0
04/27/2012	132610	132620	132610	132620	0
04/30/2012	132430	132430	132420	132420	0
05/01/2012	132320	132320	132310	132320	0
05/02/2012	131630	131640	131630	131640	0
05/03/2012	131510	131520	131510	131520	0
05/04/2012	130890	130890	130890	130890	0
05/07/2012	130540	130540	130540	130540	0
05/08/2012	130320	130320	130300	130300	0
05/09/2012	129480	129490	129480	129480	0
05/10/2012	129530	129530	129520	129530	0
05/11/2012	129230	129240	129220	129240	0
05/14/2012	128460	128460	128450	128450	0
05/15/2012	127360	127360	127350	127360	0
05/16/2012	127260	127260	127240	127240	0
05/17/2012	127160	127160	127150	127150	0
05/18/2012	127400	127400	127390	127390	0
05/21/2012	127900	127900	127900	127900	0
05/22/2012	127210	127210	127200	127200	0
05/23/2012	125740	125740	125730	125740	0
05/24/2012	125270	125270	125260	125260	0
05/25/2012	125190	125190	125180	125180	0
05/29/2012	124890	124890	124890	124890	0
05/30/2012	123820	123820	123810	123810	0
05/31/2012	123690	123690	123680	123680	0
06/01/2012	124130	124130	124120	124130	0
06/04/2012	124930	124930	124920	124930	0
06/05/2012	124460	124460	124450	124460	0
06/06/2012	125460	125460	125460	125460	0
06/07/2012	126030	126030	126030	126030	0
06/08/2012	125080	125080	125070	125070	0
06/11/2012	125090	125090	125080	125090	0
06/12/2012	125110	125120	125110	125120	0
06/13/2012	125990	125990	125990	125990	0
06/14/2012	126120	126120	126110	126110	0
06/15/2012	126500	126500	126470	126470	0
06/18/2012	125900	125910	125900	125910	0
06/19/2012	126980	126990	126980	126990	0
06/20/2012	126780	126780	126760	126760	0
06/21/2012	125650	125650	125630	125630	0
06/22/2012	125720	125720	125720	125720	0
06/25/2012	125070	125070	125060	125060	0
06/26/2012	125060	125060	125060	125060	0
06/27/2012	124680	124680	124670	124680	0
06/28/2012	124350	124360	124340	124360	0
06/29/2012	126680	126680	126670	126680	0
07/02/2012	125930	125930	125930	125930	0
07/03/2012	126210	126220	126210	126220	0
07/05/2012	124000	124010	123990	124010	0
07/06/2012	122820	122830	122820	122830	0
07/09/2012	123220	123220	123210	123210	0
07/10/2012	122630	122630	122620	122630	0
07/11/2012	122320	122320	122320	122320	0
07/12/2012	122060	122060	122050	122060	0
07/13/2012	122510	122510	122510	122510	0
07/16/2012	122870	122870	122860	122860	0
07/17/2012	122960	122970	122960	122970	0
07/18/2012	122710	122720	122710	122720	0
07/19/2012	122870	122870	122870	122870	0
07/20/2012	121680	121680	121680	121680	0
07/23/2012	121350	121350	121350	121350	0
07/24/2012	120710	120710	120700	120710	0
07/25/2012	121680	121680	121670	121670	0
07/26/2012	122950	122950	122930	122930	0
07/27/2012	123170	123180	123170	123170	0
07/30/2012	122690	122690	122690	122690	0
07/31/2012	123120	123130	123120	123130	0
08/01/2012	122430	122430	122420	122430	0
08/02/2012	121790	121800	121790	121800	0
08/03/2012	123810	123820	123810	123820	0
08/06/2012	124000	124000	123990	124000	0
08/07/2012	124160	124170	124160	124170	0
08/08/2012	123610	123610	123600	123600	0
08/09/2012	122990	123000	122990	123000	0
08/10/2012	122980	122980	122970	122970	0
08/13/2012	123390	123390	123370	123380	0
08/14/2012	123370	123370	123350	123350	0
08/15/2012	122920	122930	122920	122930	0
08/16/2012	123660	123660	123660	123660	0
08/17/2012	123250	123250	123240	123240	0
08/20/2012	123520	123520	123510	123510	0
08/21/2012	124710	124710	124700	124700	0
08/22/2012	125340	125340	125320	125320	0
08/23/2012	125680	125680	125680	125680	0
08/24/2012	125210	125210	125210	125210	0
08/27/2012	125060	125060	125050	125050	0
08/28/2012	125670	125670	125650	125650	0
08/29/2012	125300	125300	125290	125290	0
08/30/2012	125090	125100	125090	125090	0
08/31/2012	125810	125820	125810	125820	0
09/04/2012	125740	125740	125740	125740	0
09/05/2012	126030	126030	126010	126010	0
09/06/2012	126470	126480	126470	126480	0
09/07/2012	127990	127990	127980	127980	0
09/10/2012	127820	127830	127810	127820	0
09/11/2012	128730	128730	128720	128720	0
09/12/2012	129070	129070	129050	129050	0
09/13/2012	129960	129960	129940	129950	0
09/14/2012	131280	131280	131280	131280	0
09/17/2012	131150	131160	131140	131160	0
09/18/2012	130480	130480	130480	130480	0
09/19/2012	130730	130740	130730	130740	0
09/20/2012	129820	129820	129810	129810	0
09/21/2012	130010	130010	130010	130010	0
09/24/2012	129440	129470	129440	129470	0
09/25/2012	129390	129390	129380	129380	0
09/26/2012	128710	128710	128700	128710	0
09/27/2012	129280	129280	129270	129270	0
09/28/2012	128630	128630	128620	128620	0
10/01/2012	128960	128960	128960	128960	0
10/02/2012	129250	129260	129250	129250	0
10/03/2012	129100	129100	129090	129090	0
10/04/2012	130290	130290	130280	130280	0
10/05/2012	130400	130420	130400	130420	0
10/08/2012	129850	129850	129840	129840	0
10/09/2012	128910	128920	128910	128920	0
10/10/2012	129040	129050	129030	129050	0
10/11/2012	129400	129400	129380	129380	0
10/12/2012	129660	129660	129650	129650	0
10/15/2012	129500	129500	129490	129490	0
10/16/2012	130510	130510	130500	130500	0
10/17/2012	131320	131320	131320	131320	0
10/18/2012	130690	130700	130690	130700	0
10/19/2012	130310	130310	130300	130300	0
10/22/2012	130530	130530	130520	130520	0
10/23/2012	129790	129790	129780	129790	0
10/24/2012	129810	129810	129800	129800	0
10/25/2012	129550	129550	129550	129550	0
10/26/2012	129410	129410	129390	129390	0
10/30/2012	129710	129710	129690	129690	0
10/31/2012	129670	129670	129670	129670	0
11/01/2012	129430	129430	129420	129420	0
11/02/2012	128320	128320	128310	128310	0
11/05/2012	127930	127930	127930	127930	0
11/06/2012	128210	128210	128210	128210	0
11/07/2012	127720	127730	127720	127730	0
11/08/2012	127520	127520	127510	127520	0
11/09/2012	127160	127160	127150	127160	0
11/12/2012	127170	127170	127160	127170	0
11/13/2012	127120	127120	127090	127090	0
11/14/2012	127500	127500	127500	127500	0
11/15/2012	127770	127770	127760	127770	0
11/16/2012	127300	127300	127300	127300	0
11/19/2012	128100	128110	128090	128110	0
11/20/2012	128090	128090	128080	128090	0
11/21/2012	128290	128290	128270	128280	0
11/23/2012	129850	129880	129850	129880	0
11/26/2012	129660	129660	129640	129650	0
11/27/2012	129360	129370	129350	129360	0
11/28/2012	129350	129350	129340	129340	0
11/29/2012	129760	129760	129760	129760	0
11/30/2012	129990	130000	129990	130000	0
12/03/2012	130590	130590	130590	130590	0
12/04/2012	131000	131010	131000	131010	0
12/05/2012	130810	130810	130800	130800	0
12/06/2012	129640	129640	129640	129640	0
12/07/2012	129290	129290	129280	129280	0
12/10/2012	129520	129520	129520	129520	0
12/11/2012	130170	130170	130160	130160	0
12/12/2012	130930	130930	130930	130930	0
12/13/2012	130870	130880	130870	130880	0
12/14/2012	131700	131710	131700	131710	0
12/17/2012	131720	131720	131720	131720	0
12/18/2012	132310	132310	132300	132310	0
12/19/2012	132580	132590	132580	132590	0
12/20/2012	132520	132520	132520	132520	0
12/21/2012	131870	131870	131860	131870	0
12/24/2012	132000	132010	132000	132010	0
12/26/2012	132320	132320	132320	132320	0
12/27/2012	132490	132490	132490	132490	0
12/28/2012	132310	132310	132300	132310	0
12/31/2012	132080	132090	132080	132080	0
01/02/2013	131830	131840	131830	131840	0
01/03/2013	130710	130710	130690	130690	0
01/04/2013	130800	130800	130790	130800	0
01/07/2013	131200	131210	131200	131200	0
01/08/2013	130920	130920	130910	130910	0
01/09/2013	130620	130620	130610	130620	0
01/10/2013	132590	132590	132580	132590	0
01/11/2013	133470	133470	133460	133460	0
01/14/2013	133830	133850	133830	133850	0
01/15/2013	133030	133040	133030	133040	0
01/16/2013	132970	132970	132950	132960	0
01/17/2013	133930	133930	133920	133920	0
01/18/2013	133250	133250	133240	133250	0
01/22/2013	133240	133240	133240	133240	0
01/23/2013	133250	133250	133240	133250	0
01/24/2013	133790	133790	133780	133780	0
01/25/2013	134680	134690	134680	134690	0
01/28/2013	134590	134600	134590	134600	0
01/29/2013	134910	134910	134910	134910	0
01/30/2013	135670	135700	135670	135700	0
01/31/2013	135790	135790	135780	135780	0
02/01/2013	136650	136650	136640	136650	0
02/04/2013	135230	135230	135230	135230	0
02/05/2013	135870	135880	135870	135880	0
02/06/2013	135270	135290	135270	135290	0
02/07/2013	134060	134070	134060	134070	0
02/08/2013	133660	133660	133650	133660	0
02/11/2013	133910	133920	133900	133920	0
02/12/2013	134470	134470	134460	134460	0
02/13/2013	134520	134520	134510	134510	0
02/14/2013	133500	133510	133500	133500	0
02/15/2013	133580	133580	133570	133580	0
02/19/2013	133920	133920	133910	133910	0
02/20/2013	132890	132890	132870	132870	0
02/21/2013	131720	131720	131710	131720	0
02/22/2013	131820	131820	131810	131810	0
02/25/2013	131190	131220	131190	131220	0
02/26/2013	130570	130570	130560	130560	0
02/27/2013	131300	131300	131290	131290	0
02/28/2013	130670	130670	130650	130650	0
03/01/2013	130200	130200	130190	130200	0
03/04/2013	130270	130270	130250	130250	0
03/05/2013	130420	130430	130420	130420	0
03/06/2013	129950	129960	129950	129960	0
03/07/2013	131090	131090	131080	131080	0
03/08/2013	130020	130030	130020	130030	0
03/11/2013	130500	130500	130500	130500	0
03/12/2013	130350	130350	130340	130350	0
03/13/2013	129680	129680	129680	129680	0
03/14/2013	130060	130060	130050	130060	0
03/15/2013	130630	130630	130620	130620	0
03/18/2013	129570	129570	129560	129560	0
03/19/2013	128850	128850	128840	128840	0
03/20/2013	129570	129570	129540	129540	0
03/21/2013	129240	129240	129240	129240	0
03/22/2013	129910	129910	129910	129910	0
03/25/2013	128730	128730	128720	128720	0
03/26/2013	128650	128650	128640	128650	0
03/27/2013	127820	127830	127820	127820	0
03/28/2013	128230	128230	128230	128230	0
04/01/2013	128570	128570	128560	128560	0
04/02/2013	128230	128230	128220	128220	0
04/03/2013	128520	128530	128520	128530	0
04/04/2013	129440	129440	129440	129440	0
04/05/2013	130200	130200	130190	130190	0
04/08/2013	130080	130090	130080	130090	0
04/09/2013	131040	131050	131040	131050	0
04/10/2013	130650	130650	130640	130640	0
04/11/2013	131170	131180	131170	131180	0
04/12/2013	130860	130860	130850	130850	0
04/15/2013	130440	130450	130440	130450	0
04/16/2013	131950	131960	131950	131960	0
04/17/2013	130220	130220	130200	130200	0
04/18/2013	130530	130530	130520	130530	0
04/19/2013	130650	130660	130650	130660	0
04/22/2013	130640	130640	130640	130640	0
04/23/2013	129950	129950	129940	129950	0
04/24/2013	130280	130280	130270	130270	0
04/25/2013	130200	130210	130200	130210	0
04/26/2013	130350	130350	130330	130330	0
04/29/2013	131020	131030	131010	131010	0
04/30/2013	131620	131660	131620	131660	0
05/01/2013	132160	132170	132160	132170	0
05/02/2013	130620	130620	130610	130610	0
05/03/2013	131130	131140	131130	131130	0
05/06/2013	130810	130810	130810	130810	0
05/07/2013	130890	130890	130880	130880	0
05/08/2013	131620	131620	131610	131620	0
05/09/2013	130230	130230	130190	130190	0
05/10/2013	129860	129870	129860	129860	0
05/13/2013	129740	129740	129730	129730	0
05/14/2013	129400	129400	129390	129390	0
05/15/2013	128770	128770	128760	128770	0
05/16/2013	129090	129090	129080	129090	0
05/17/2013	128310	128310	128300	128310	0
05/20/2013	128990	128990	128990	128990	0
05/21/2013	129040	129040	129020	129030	0
05/22/2013	128420	128440	128420	128440	0
05/23/2013	129350	129350	129330	129330	0
05/24/2013	129180	129190	129170	129190	0
05/28/2013	128750	128760	128750	128760	0
05/29/2013	129360	129360	129350	129360	0
05/30/2013	130480	130480	130460	130460	0
05/31/2013	129870	129870	129830	129830	0
06/03/2013	130720	130730	130720	130730	0
06/04/2013	130820	130820	130810	130820	0
06/05/2013	130870	130870	130860	130870	0
06/06/2013	132470	132470	132470	132470	0
06/07/2013	132240	132240	132240	132240	0
06/10/2013	132670	132680	132670	132680	0
06/11/2013	133140	133140	133140	133140	0
06/12/2013	133360	133370	133360	133360	0
06/13/2013	133520	133520	133520	133520	0
06/14/2013	133460	133470	133460	133470	0
06/17/2013	133480	133480	133480	133480	0
06/18/2013	134100	134110	134100	134110	0
06/19/2013	132710	132750	132710	132750	0
06/20/2013	132010	132020	132010	132010	0
06/21/2013	131460	131460	131460	131460	0
06/24/2013	131320	131320	131300	131300	0
06/25/2013	130970	130980	130960	130960	0
06/26/2013	130090	130090	130080	130080	0
06/27/2013	130510	130520	130510	130520	0
06/28/2013	130210	130230	130210	130230	0
07/01/2013	130630	130630	130630	130630	0
07/02/2013	129820	129820	129810	129810	0
07/03/2013	130140	130170	130140	130170	0
07/05/2013	128340	128340	128330	128330	0
07/08/2013	128770	128780	128770	128780	0
07/09/2013	127900	127900	127900	127900	0
07/10/2013	128850	128860	128840	128860	0
07/11/2013	130990	131010	130990	131010	0
07/12/2013	130630	130630	130620	130630	0
07/15/2013	130680	130700	130680	130700	0
07/16/2013	131630	131630	131630	131630	0
07/17/2013	131150	131150	131150	131150	0
07/18/2013	131050	131050	131040	131050	0
07/19/2013	131400	131410	131390	131390	0
07/22/2013	131910	131920	131910	131920	0
07/23/2013	132370	132370	132370	132370	0
07/24/2013	131970	131980	131970	131970	0
07/25/2013	132470	132470	132460	132460	0
07/26/2013	132790	132790	132790	132790	0
07/29/2013	132690	132690	132680	132680	0
07/30/2013	132660	132660	132660	132660	0
07/31/2013	133360	133390	133360	133390	0
08/01/2013	132160	132160	132160	132160	0
08/02/2013	132880	132880	132880	132880	0
08/05/2013	132620	132620	132610	132610	0
08/06/2013	133070	133070	133070	133070	0
08/07/2013	133340	133340	133330	133340	0
08/08/2013	133920	133920	133910	133910	0
08/09/2013	133420	133420	133420	133420	0
08/12/2013	133090	133120	133090	133120	0
08/13/2013	132640	132640	132620	132620	0
08/14/2013	132610	132610	132600	132610	0
08/15/2013	133510	133510	133490	133490	0
08/16/2013	133360	133370	133360	133370	0
08/19/2013	133450	133450	133440	133440	0
08/20/2013	134220	134220	134210	134210	0
08/21/2013	133800	133800	133760	133760	0
08/22/2013	133540	133540	133540	133540	0
08/23/2013	133850	133850	133840	133840	0
08/26/2013	133730	133740	133730	133740	0
08/27/2013	133870	133870	133860	133860	0
08/28/2013	133390	133390	133390	133390	0
08/29/2013	132420	132430	132410	132430	0
08/30/2013	132080	132080	132080	132080	0
09/03/2013	131690	131690	131690	131690	0
09/04/2013	132070	132070	132070	132070	0
09/05/2013	131210	131210	131200	131200	0
09/06/2013	131830	131830	131820	131820	0
09/09/2013	132650	132650	132650	132650	0
09/10/2013	132720	132720	132710	132720	0
09/11/2013	133150	133150	133130	133140	0
09/12/2013	133080	133080	133080	133080	0
09/13/2013	133090	133100	133090	133100	0
09/16/2013	133370	133370	133370	133370	0
09/17/2013	133610	133620	133610	133620	0
09/18/2013	135020	135090	135020	135090	0
09/19/2013	135300	135310	135300	135300	0
09/20/2013	135260	135260	135240	135240	0
09/23/2013	134980	134980	134980	134980	0
09/24/2013	134780	134790	134770	134790	0
09/25/2013	135250	135250	135240	135250	0
09/26/2013	134890	134900	134890	134900	0
09/27/2013	135180	135210	135180	135210	0
09/30/2013	135250	135270	135250	135270	0
10/01/2013	135330	135330	135330	135330	0
10/02/2013	135860	135860	135850	135850	0
10/03/2013	136240	136240	136230	136240	0
10/04/2013	135600	135600	135580	135580	0
10/07/2013	135800	135800	135790	135800	0
10/08/2013	135700	135700	135690	135690	0
10/09/2013	135260	135260	135250	135250	0
10/10/2013	135370	135380	135370	135380	0
10/11/2013	135570	135580	135570	135570	0
10/14/2013	135810	135810	135800	135800	0
10/15/2013	135230	135230	135230	135230	0
10/16/2013	135350	135350	135350	135350	0
10/17/2013	136790	136790	136790	136790	0
10/18/2013	136810	136820	136800	136810	0
10/21/2013	136800	136800	136800	136800	0
10/22/2013	137850	137850	137840	137850	0
10/23/2013	137810	137810	137800	137810	0
10/24/2013	138050	138050	138040	138040	0
10/25/2013	138070	138070	138070	138070	0
10/28/2013	138090	138090	138070	138070	0
10/29/2013	137500	137500	137490	137490	0
10/30/2013	137270	137280	137260	137280	0
10/31/2013	135920	135920	135910	135920	0
11/01/2013	134940	134940	134930	134930	0
11/04/2013	135190	135190	135180	135180	0
11/05/2013	134760	134760	134750	134750	0
11/06/2013	135230	135230	135220	135220	0
11/07/2013	134280	134280	134280	134280	0
11/08/2013	133560	133560	133550	133560	0
11/11/2013	134050	134050	134040	134040	0
11/12/2013	134290	134290	134270	134280	0
11/13/2013	134640	134640	134630	134630	0
11/14/2013	134560	134560	134550	134550	0
11/15/2013	134920	134920	134900	134900	0
11/18/2013	135010	135010	135000	135000	0
11/19/2013	135310	135320	135310	135320	0
11/20/2013	134160	134200	134160	134200	0
11/21/2013	134630	134630	134610	134610	0
11/22/2013	135510	135510	135500	135510	0
11/25/2013	135150	135160	135150	135160	0
11/26/2013	135750	135750	135750	135750	0
11/27/2013	135720	135730	135720	135730	0
11/29/2013	135930	135930	135870	135870	0
12/02/2013	135400	135400	135400	135400	0
12/03/2013	135910	135910	135910	135910	0
12/04/2013	135890	135890	135880	135880	0
12/05/2013	136780	136780	136760	136760	0
12/06/2013	136950	136960	136940	136960	0
12/09/2013	137400	137400	137380	137390	0
12/10/2013	137620	137620	137610	137620	0
12/11/2013	137870	137870	137870	137870	0
12/12/2013	137430	137430	137430	137430	0
12/13/2013	137330	137330	137330	137330	0
12/16/2013	137630	137630	137620	137620	0
12/17/2013	137650	137650	137640	137650	0
12/18/2013	137570	137570	137560	137570	0
12/19/2013	136540	136550	136540	136550	0
12/20/2013	136690	136720	136690	136720	0
12/23/2013	136890	136890	136880	136890	0
12/24/2013	136760	136790	136760	136790	0
12/26/2013	136910	136910	136900	136910	0
12/27/2013	137360	137360	137330	137330	0
12/30/2013	138010	138020	138010	138020	0
12/31/2013	137850	137880	137850	137880	0
01/02/2014	136530	136530	136520	136520	0
01/03/2014	135970	135980	135970	135980	0
01/06/2014	136330	136350	136330	136350	0
01/07/2014	136170	136170	136160	136170	0
01/08/2014	135840	135840	135820	135820	0
01/09/2014	135910	135910	135900	135900	0
01/10/2014	136610	136610	136600	136600	0
01/13/2014	136740	136740	136720	136730	0
01/14/2014	136740	136740	136730	136730	0
01/15/2014	136000	136000	135990	135990	0
01/16/2014	136140	136140	136140	136140	0
01/17/2014	135310	135310	135290	135290	0
01/21/2014	135590	135590	135580	135590	0
01/22/2014	135460	135460	135450	135460	0
01/23/2014	136960	136970	136950	136960	0
01/24/2014	136760	136760	136760	136760	0
01/27/2014	136670	136670	136660	136660	0
01/28/2014	136640	136650	136640	136650	0
01/29/2014	136640	136640	136630	136630	0
01/30/2014	135510	135510	135500	135500	0
01/31/2014	134910	134910	134840	134840	0
02/03/2014	135320	135320	135310	135310	0
02/04/2014	135150	135160	135150	135160	0
02/05/2014	135350	135350	135340	135340	0
02/06/2014	135870	135870	135870	135870	0
02/07/2014	136280	136290	136280	136280	0
02/10/2014	136400	136410	136400	136410	0
02/11/2014	136390	136390	136380	136380	0
02/12/2014	135940	135940	135940	135940	0
02/13/2014	136750	136750	136740	136740	0
02/14/2014	137000	137000	137000	137000	0
02/18/2014	137580	137580	137570	137570	0
02/19/2014	137460	137460	137440	137440	0
02/20/2014	137190	137200	137190	137200	0
02/21/2014	137430	137450	137430	137440	0
02/24/2014	137350	137350	137350	137350	0
02/25/2014	137430	137430	137420	137420	0
02/26/2014	136820	136830	136820	136830	0
02/27/2014	137120	137120	137110	137110	0
02/28/2014	138210	138220	138210	138220	0
03/03/2014	137340	137340	137330	137330	0
03/04/2014	137350	137350	137340	137350	0
03/05/2014	137330	137330	137310	137310	0
03/06/2014	138610	138610	138610	138610	0
03/07/2014	138740	138740	138720	138720	0
03/10/2014	138700	138700	138680	138680	0
03/11/2014	138700	138700	138690	138690	0
03/12/2014	139030	139030	139020	139020	0
03/13/2014	138580	138580	138570	138580	0
03/14/2014	139040	139040	139030	139030	0
03/17/2014	139200	139200	139190	139190	0
03/18/2014	139280	139280	139280	139280	0
03/19/2014	138330	138330	138280	138280	0
03/20/2014	137790	137790	137790	137790	0
03/21/2014	137930	137930	137920	137920	0
03/24/2014	138370	138370	138370	138370	0
03/25/2014	138260	138260	138250	138250	0
03/26/2014	137860	137890	137850	137890	0
03/27/2014	137470	137470	137460	137460	0
03/28/2014	137500	137500	137500	137500	0
03/31/2014	137740	137740	137730	137740	0
04/01/2014	137910	137910	137900	137900	0
04/02/2014	137620	137630	137620	137620	0
04/03/2014	137110	137120	137100	137120	0
04/04/2014	137010	137010	137000	137000	0
04/07/2014	137380	137380	137370	137370	0
04/08/2014	137940	137940	137930	137930	0
04/09/2014	138500	138500	138490	138500	0
04/10/2014	138910	138910	138890	138890	0
04/11/2014	138870	138870	138850	138850	0
04/14/2014	138210	138210	138190	138190	0
04/15/2014	138090	138090	138070	138080	0
04/16/2014	138190	138190	138190	138190	0
04/17/2014	138170	138170	138170	138170	0
04/21/2014	137930	137940	137930	137940	0
04/22/2014	138010	138010	138010	138010	0
04/23/2014	138150	138150	138140	138140	0
04/24/2014	138230	138230	138230	138230	0
04/25/2014	138340	138340	138330	138340	0
04/28/2014	138520	138520	138520	138520	0
04/29/2014	138090	138090	138090	138090	0
04/30/2014	138700	138700	138700	138700	0
05/01/2014	138640	138640	138630	138630	0
05/02/2014	138700	138700	138700	138700	0
05/05/2014	138760	138760	138760	138760	0
05/06/2014	139320	139320	139320	139320	0
05/07/2014	139160	139160	139150	139150	0
05/08/2014	138530	138530	138520	138520	0
05/09/2014	137470	137470	137450	137450	0
05/12/2014	137530	137540	137530	137540	0
05/13/2014	136970	136970	136960	136960	0
05/14/2014	137060	137060	137050	137050	0
05/15/2014	137150	137150	137140	137140	0
05/16/2014	136960	136970	136960	136960	0
05/19/2014	137110	137110	137110	137110	0
05/20/2014	136970	136970	136960	136960	0
05/21/2014	136780	136780	136770	136770	0
05/22/2014	136510	136510	136490	136490	0
05/23/2014	136250	136260	136250	136260	0
05/27/2014	136330	136330	136330	136330	0
05/28/2014	135920	135920	135920	135920	0
05/29/2014	136020	136020	136010	136010	0
05/30/2014	136350	136350	136330	136330	0
06/02/2014	135960	135960	135950	135950	0
06/03/2014	136240	136240	136230	136230	0
06/04/2014	135980	135990	135980	135990	0
06/05/2014	136560	136580	136560	136580	0
06/06/2014	136480	136480	136470	136470	0
06/09/2014	135900	135900	135890	135890	0
06/10/2014	135470	135470	135450	135450	0
06/11/2014	135310	135310	135300	135300	0
06/12/2014	135690	135690	135680	135680	0
06/13/2014	135380	135380	135370	135380	0
06/16/2014	135730	135730	135720	135720	0
06/17/2014	135480	135480	135470	135470	0
06/18/2014	135630	135640	135630	135630	0
06/19/2014	136110	136110	136100	136110	0
06/20/2014	135960	135960	135960	135960	0
06/23/2014	136070	136070	136070	136070	0
06/24/2014	136070	136070	136060	136060	0
06/25/2014	136310	136310	136310	136310	0
06/26/2014	136120	136120	136110	136110	0
06/27/2014	136490	136490	136490	136490	0
06/30/2014	136980	136980	136980	136980	0
07/01/2014	136830	136830	136830	136830	0
07/02/2014	136580	136580	136580	136580	0
07/03/2014	136070	136070	136060	136060	0
07/07/2014	136120	136120	136120	136120	0
07/08/2014	136140	136140	136140	136140	0
07/09/2014	136490	136500	136490	136500	0
07/10/2014	136070	136070	136070	136070	0
07/11/2014	136120	136120	136120	136120	0
07/14/2014	136230	136230	136220	136220	0
07/15/2014	135720	135720	135710	135710	0
07/16/2014	135270	135270	135260	135260	0
07/17/2014	135280	135290	135280	135290	0
07/18/2014	135290	135290	135280	135280	0
07/21/2014	135260	135260	135250	135250	0
07/22/2014	134690	134690	134680	134680	0
07/23/2014	134590	134600	134590	134590	0
07/24/2014	134660	134660	134650	134650	0
07/25/2014	134340	134340	134330	134330	0
07/28/2014	134340	134350	134340	134350	0
07/29/2014	134120	134120	134110	134110	0
07/30/2014	133940	133940	133930	133930	0
07/31/2014	133930	133930	133920	133920	0
08/01/2014	134300	134310	134300	134300	0
08/04/2014	134210	134210	134210	134210	0
08/05/2014	133750	133750	133740	133740	0
08/06/2014	133790	133790	133790	133790	0
08/07/2014	133620	133620	133600	133600	0
08/08/2014	134120	134130	134120	134130	0
08/11/2014	133850	133850	133840	133840	0
08/12/2014	133700	133700	133690	133690	0
08/13/2014	133700	133700	133700	133700	0
08/14/2014	133690	133690	133680	133680	0
08/15/2014	133990	134000	133980	134000	0
08/18/2014	133640	133640	133630	133630	0
08/19/2014	133220	133220	133210	133210	0
08/20/2014	132660	132660	132650	132650	0
08/21/2014	132830	132830	132820	132820	0
08/22/2014	132460	132460	132430	132430	0
08/25/2014	131940	131950	131940	131940	0
08/26/2014	131740	131740	131740	131740	0
08/27/2014	131970	131970	131970	131970	0
08/28/2014	131840	131850	131840	131850	0
08/29/2014	131350	131350	131350	131350	0
09/02/2014	131270	131270	131260	131270	0
09/03/2014	131470	131470	131460	131460	0
09/04/2014	129400	129400	129380	129380	0
09/05/2014	129600	129600	129590	129590	0
09/08/2014	129180	129180	129170	129180	0
09/09/2014	129290	129290	129290	129290	0
09/10/2014	129150	129150	129150	129150	0
09/11/2014	129350	129350	129330	129330	0
09/12/2014	129590	129590	129580	129580	0
09/15/2014	129450	129460	129450	129450	0
09/16/2014	129690	129690	129690	129690	0
09/17/2014	129220	129250	129220	129250	0
09/18/2014	129250	129250	129240	129240	0
09/19/2014	128440	128440	128430	128440	0
09/22/2014	128440	128450	128430	128430	0
09/23/2014	128650	128650	128650	128650	0
09/24/2014	127880	127880	127870	127870	0
09/25/2014	127560	127560	127550	127550	0
09/26/2014	126890	126890	126890	126890	0
09/29/2014	126990	127000	126990	127000	0
09/30/2014	126360	126360	126350	126350	0
10/01/2014	126150	126150	126140	126140	0
10/02/2014	126810	126820	126810	126810	0
10/03/2014	125150	125150	125150	125150	0
10/06/2014	126330	126330	126330	126330	0
10/07/2014	126690	126700	126680	126700	0
10/08/2014	127390	127390	127380	127380	0
10/09/2014	126940	126940	126930	126930	0
10/10/2014	126190	126200	126190	126190	0
10/13/2014	126720	126720	126710	126710	0
10/14/2014	126520	126540	126520	126540	0
10/15/2014	127810	127820	127800	127810	0
10/16/2014	128070	128070	128050	128050	0
10/17/2014	127780	127780	127780	127780	0
10/20/2014	128140	128140	128130	128130	0
10/21/2014	127300	127300	127290	127300	0
10/22/2014	126480	126480	126470	126480	0
10/23/2014	126530	126530	126530	126530	0
10/24/2014	126700	126700	126680	126680	0
10/27/2014	127130	127130	127120	127120	0
10/28/2014	127400	127400	127390	127390	0
10/29/2014	126510	126510	126490	126490	0
10/30/2014	126160	126160	126150	126160	0
10/31/2014	125300	125310	125300	125300	0
11/03/2014	124940	124940	124940	124940	0
11/04/2014	125600	125600	125600	125600	0
11/05/2014	124830	124840	124830	124830	0
11/06/2014	123900	123900	123900	123900	0
11/07/2014	124430	124440	124430	124440	0
11/10/2014	124240	124250	124240	124250	0
11/11/2014	124690	124690	124670	124670	0
11/12/2014	124360	124360	124350	124350	0
11/13/2014	124920	124920	124900	124900	0
11/14/2014	125280	125280	125280	125280	0
11/17/2014	124550	124550	124540	124540	0
11/18/2014	125370	125370	125360	125370	0
11/19/2014	125460	125470	125460	125470	0
11/20/2014	125520	125520	125510	125520	0
11/21/2014	123880	123890	123880	123890	0
11/24/2014	124370	124370	124360	124360	0
11/25/2014	124720	124730	124720	124730	0
11/26/2014	125170	125170	125160	125160	0
11/28/2014	124340	124360	124340	124360	0
12/01/2014	124790	124790	124780	124790	0
12/02/2014	123810	123810	123800	123810	0
12/03/2014	123120	123120	123110	123110	0
12/04/2014	123680	123680	123680	123680	0
12/05/2014	122890	122890	122880	122890	0
12/08/2014	123350	123350	123350	123350	0
12/09/2014	123850	123870	123850	123860	0
12/10/2014	124460	124490	124460	124490	0
12/11/2014	123900	123920	123900	123920	0
12/12/2014	124600	124600	124590	124590	0
12/15/2014	124440	124440	124430	124440	0
12/16/2014	124970	124970	124950	124950	0
12/17/2014	123400	123410	123370	123370	0
12/18/2014	122910	122920	122910	122920	0
12/19/2014	122340	122350	122340	122350	0
12/22/2014	122310	122310	122300	122300	0
12/23/2014	121850	121850	121840	121850	0
12/24/2014	121990	122000	121990	121990	0
12/26/2014	121870	121870	121850	121850	0
12/29/2014	121640	121650	121640	121650	0
12/30/2014	121640	121640	121620	121620	0
12/31/2014	121080	121080	121070	121070	0
01/02/2015	120140	120140	120130	120130	0
01/05/2015	119470	119470	119460	119470	0
01/06/2015	119220	119220	119210	119210	0
01/07/2015	118580	118580	118570	118570	0
01/08/2015	117900	117900	117890	117900	0
01/09/2015	118480	118480	118480	118480	0
01/12/2015	118470	118470	118470	118470	0
01/13/2015	117710	117710	117710	117710	0
01/14/2015	117850	117850	117820	117820	0
01/15/2015	116270	116270	116220	116220	0
01/16/2015	115870	115900	115870	115900	0
01/20/2015	115510	115540	115510	115540	0
01/21/2015	115970	115970	115970	115970	0
01/22/2015	113820	113830	113820	113830	0
01/23/2015	112510	112510	112510	112510	0
01/26/2015	112730	112730	112720	112720	0
01/27/2015	113820	113820	113800	113800	0
01/28/2015	113150	113150	113140	113140	0
01/29/2015	113170	113170	113170	113170	0
01/30/2015	112970	112980	112960	112960	0
02/02/2015	113500	113510	113500	113500	0
02/03/2015	114950	114950	114910	114910	0
02/04/2015	114230	114230	114230	114230	0
02/05/2015	114790	114800	114790	114790	0
02/06/2015	113220	113230	113220	113230	0
02/09/2015	113410	113420	113410	113410	0
02/10/2015	113180	113180	113170	113170	0
02/11/2015	113060	113070	113060	113070	0
02/12/2015	114190	114200	114180	114180	0
02/13/2015	113980	113980	113950	113950	0
02/17/2015	114170	114170	114170	114170	0
02/18/2015	113850	113850	113840	113840	0
02/19/2015	113650	113680	113640	113680	0
02/20/2015	113990	113990	113980	113990	0
02/23/2015	113370	113370	113360	113360	0
02/24/2015	113390	113390	113390	113390	0
02/25/2015	113620	113630	113620	113620	0
02/26/2015	112000	112000	111990	111990	0
02/27/2015	111960	111960	111950	111950	0
03/02/2015	111900	111900	111880	111880	0
03/03/2015	111790	111800	111790	111800	0
03/04/2015	110740	110750	110740	110750	0
03/05/2015	110290	110290	110280	110280	0
03/06/2015	108610	108610	108590	108590	0
03/09/2015	108740	108750	108730	108730	0
03/10/2015	107080	107100	107080	107100	0
03/11/2015	105490	105490	105460	105460	0
03/12/2015	106140	106140	106100	106100	0
03/13/2015	104830	104840	104830	104840	0
03/16/2015	105990	105990	105950	105950	0
03/17/2015	106110	106110	106100	106110	0
03/18/2015	107570	107570	107530	107530	0
03/19/2015	106490	106530	106490	106530	0
03/20/2015	108230	108240	108230	108230	0
03/23/2015	109550	109550	109540	109540	0
03/24/2015	109310	109310	109290	109300	0
03/25/2015	109730	109730	109720	109720	0
03/26/2015	108800	108820	108800	108820	0
03/27/2015	109160	109160	109160	109160	0
03/30/2015	108340	108340	108340	108340	0
03/31/2015	107540	107540	107530	107540	0
04/01/2015	107750	107750	107750	107750	0
04/02/2015	109070	109070	109050	109050	0
04/06/2015	109890	109890	109870	109870	0
04/07/2015	108380	108390	108370	108390	0
04/08/2015	108090	108090	108080	108080	0
04/09/2015	106490	106490	106480	106480	0
04/10/2015	106140	106140	106130	106130	0
04/13/2015	105790	105790	105780	105780	0
04/14/2015	106680	106680	106670	106680	0
04/15/2015	106920	106930	106920	106930	0
04/16/2015	108040	108060	108030	108060	0
04/17/2015	108000	108010	108000	108000	0
04/20/2015	107430	107440	107420	107440	0
04/21/2015	107440	107440	107420	107420	0
04/22/2015	107470	107470	107470	107470	0
04/23/2015	108340	108340	108320	108320	0
04/24/2015	108750	108750	108750	108750	0
04/27/2015	108860	108870	108860	108870	0
04/28/2015	109870	109870	109850	109850	0
04/29/2015	111180	111180	111180	111180	0
04/30/2015	112710	112710	112660	112660	0
05/01/2015	111960	111980	111960	111980	0
05/04/2015	111440	111450	111430	111450	0
05/05/2015	112030	112030	112010	112010	0
05/06/2015	113590	113590	113570	113570	0
05/07/2015	112730	112740	112730	112740	0
05/08/2015	112070	112100	112070	112100	0
05/11/2015	111620	111620	111610	111610	0
05/12/2015	112250	112250	112240	112250	0
05/13/2015	113680	113680	113650	113650	0
05/14/2015	114020	114020	114000	114000	0
05/15/2015	114680	114690	114680	114690	0
05/18/2015	113080	113080	113070	113080	0
05/19/2015	111580	111590	111580	111590	0
05/20/2015	111230	111230	111200	111200	0
05/21/2015	111350	111350	111340	111340	0
05/22/2015	110440	110440	110430	110430	0
05/26/2015	108740	108740	108740	108740	0
05/27/2015	108910	108920	108910	108920	0
05/28/2015	109530	109580	109530	109570	0
05/29/2015	109820	109830	109820	109830	0
06/01/2015	109340	109350	109340	109350	0
06/02/2015	111650	111690	111650	111690	0
06/03/2015	112520	112530	112520	112520	0
06/04/2015	112460	112460	112460	112460	0
06/05/2015	111200	111200	111190	111200	0
06/08/2015	112910	112910	112900	112910	0
06/09/2015	112950	112960	112950	112950	0
06/10/2015	113300	113300	113300	113300	0
06/11/2015	112760	112770	112760	112770	0
06/12/2015	112760	112760	112750	112750	0
06/15/2015	112970	112970	112970	112970	0
06/16/2015	112540	112540	112540	112540	0
06/17/2015	113490	113490	113470	113470	0
06/18/2015	113820	113830	113820	113830	0
06/19/2015	113660	113660	113660	113660	0
06/22/2015	113530	113530	113500	113500	0
06/23/2015	111820	111820	111800	111800	0
06/24/2015	112190	112190	112170	112180	0
06/25/2015	112150	112150	112140	112140	0
06/26/2015	111720	111730	111720	111720	0
06/29/2015	112640	112650	112640	112650	0
06/30/2015	111570	111570	111560	111560	0
07/01/2015	110620	110620	110590	110590	0
07/02/2015	110960	110960	110960	110960	0
07/06/2015	110590	110590	110580	110580	0
07/07/2015	109860	109860	109850	109860	0
07/08/2015	110710	110710	110710	110710	0
07/09/2015	110220	110220	110220	110220	0
07/10/2015	111380	111380	111380	111380	0
07/13/2015	110110	110110	110070	110070	0
07/14/2015	110180	110180	110180	110180	0
07/15/2015	109590	109590	109570	109570	0
07/16/2015	108840	108840	108830	108830	0
07/17/2015	108580	108580	108570	108570	0
07/20/2015	108380	108380	108370	108370	0
07/21/2015	109520	109520	109500	109500	0
07/22/2015	109110	109130	109110	109120	0
07/23/2015	110070	110070	110050	110060	0
07/24/2015	109880	109890	109880	109890	0
07/27/2015	111040	111050	111040	111050	0
07/28/2015	110510	110510	110490	110490	0
07/29/2015	110150	110150	110150	110150	0
07/30/2015	109230	109240	109230	109240	0
07/31/2015	109720	109720	109710	109710	0
08/03/2015	109530	109540	109530	109540	0
08/04/2015	108980	108980	108970	108970	0
08/05/2015	109030	109030	109010	109010	0
08/06/2015	109280	109280	109260	109260	0
08/07/2015	109760	109760	109760	109760	0
08/10/2015	110250	110250	110240	110240	0
08/11/2015	110360	110360	110340	110350	0
08/12/2015	111720	111740	111720	111740	0
08/13/2015	111460	111460	111450	111460	0
08/14/2015	111250	111250	111240	111240	0
08/17/2015	110850	110850	110840	110850	0
08/18/2015	110250	110250	110220	110230	0
08/19/2015	111330	111350	111330	111340	0
08/20/2015	112000	112020	112000	112020	0
08/21/2015	113580	113580	113570	113580	0
08/24/2015	116020	116030	116020	116030	0
08/25/2015	114280	114300	114280	114290	0
08/26/2015	113510	113530	113510	113520	0
08/27/2015	112650	112680	112650	112680	0
08/28/2015	111850	111860	111840	111850	0
08/31/2015	112360	112390	112360	112390	0
09/01/2015	112970	112970	112960	112960	0
09/02/2015	112410	112410	112400	112400	0
09/03/2015	111180	111180	111160	111170	0
09/04/2015	111500	111500	111500	111500	0
09/08/2015	111880	111880	111860	111860	0
09/09/2015	111970	111970	111960	111970	0
09/10/2015	112860	112860	112850	112850	0
09/11/2015	113520	113530	113520	113530	0
09/14/2015	113310	113320	113310	113320	0
09/15/2015	112900	112900	112900	112900	0
09/16/2015	112940	112950	112940	112940	0
09/17/2015	114130	114140	114130	114130	0
09/18/2015	113680	113680	113680	113680	0
09/21/2015	112070	112070	112060	112060	0
09/22/2015	111480	111480	111470	111470	0
09/23/2015	112260	112260	112220	112220	0
09/24/2015	112330	112340	112330	112340	0
09/25/2015	112040	112040	112030	112030	0
09/28/2015	112450	112450	112440	112440	0
09/29/2015	112720	112720	112710	112720	0
09/30/2015	111780	111790	111780	111790	0
10/01/2015	111970	111970	111960	111960	0
10/02/2015	112410	112410	112400	112410	0
10/05/2015	111930	111930	111920	111920	0
10/06/2015	112840	112840	112830	112840	0
10/07/2015	112630	112630	112630	112630	0
10/08/2015	112840	112840	112830	112840	0
10/09/2015	113770	113780	113770	113770	0
10/12/2015	113870	113880	113870	113880	0
10/13/2015	113960	113960	113950	113950	0
10/14/2015	114890	114890	114880	114890	0
10/15/2015	113940	113940	113930	113940	0
10/16/2015	113850	113860	113850	113860	0
10/19/2015	113360	113370	113350	113360	0
10/20/2015	113470	113470	113450	113460	0
10/21/2015	113470	113470	113460	113460	0
10/22/2015	111170	111170	111170	111170	0
10/23/2015	110120	110120	110120	110120	0
10/26/2015	110550	110550	110530	110530	0
10/27/2015	110480	110500	110480	110500	0
10/28/2015	109100	109100	109080	109090	0
10/29/2015	109840	109840	109810	109810	0
10/30/2015	110100	110100	110090	110090	0
11/02/2015	110180	110180	110170	110170	0
11/03/2015	109700	109700	109680	109700	0
11/04/2015	108640	108650	108630	108650	0
11/05/2015	108910	108910	108910	108910	0
11/06/2015	107500	107510	107500	107500	0
11/09/2015	107620	107620	107610	107620	0
11/10/2015	107110	107120	107110	107110	0
11/11/2015	107330	107340	107330	107340	0
11/12/2015	107980	107990	107980	107980	0
11/13/2015	107410	107420	107410	107410	0
11/16/2015	106820	106820	106810	106810	0
11/17/2015	106540	106540	106520	106520	0
11/18/2015	106500	106500	106500	106500	0
11/19/2015	107350	107360	107350	107360	0
11/20/2015	106560	106560	106550	106560	0
11/23/2015	106280	106280	106270	106270	0
11/24/2015	106590	106590	106580	106590	0
11/25/2015	106200	106200	106190	106190	0
11/27/2015	106020	106020	106020	106020	0
11/30/2015	105760	105770	105760	105760	0
12/01/2015	106340	106350	106340	106340	0
12/02/2015	106190	106190	106190	106190	0
12/03/2015	109690	109740	109690	109740	0
12/04/2015	108770	108770	108750	108750	0
12/07/2015	108460	108470	108460	108470	0
12/08/2015	108900	108900	108890	108890	0
12/09/2015	110280	110290	110270	110270	0
12/10/2015	109350	109370	109350	109370	0
12/11/2015	110230	110230	110200	110200	0
12/14/2015	110260	110270	110260	110270	0
12/15/2015	109450	109460	109450	109460	0
12/16/2015	110120	110120	110080	110080	0
12/17/2015	108310	108310	108300	108300	0
12/18/2015	108890	108910	108890	108910	0
12/21/2015	109540	109540	109520	109520	0
12/22/2015	109810	109810	109790	109790	0
12/23/2015	109380	109380	109360	109360	0
12/24/2015	109760	109760	109760	109760	0
12/28/2015	110000	110000	109990	109990	0
12/29/2015	109590	109610	109590	109610	0
12/30/2015	109430	109440	109430	109440	0
12/31/2015	108830	108860	108830	108860	0
01/04/2016	108460	108460	108460	108460	0
01/05/2016	107620	107630	107620	107630	0
01/06/2016	108050	108060	108050	108060	0
01/07/2016	109530	109530	109520	109520	0
01/08/2016	109210	109210	109190	109200	0
01/11/2016	108888	108895	108884	108895	0
01/12/2016	108725	108725	108716	108716	0
01/13/2016	108928	108940	108925	108940	0
01/14/2016	108774	108783	108773	108780	0
01/15/2016	109241	109244	109240	109244	0
01/19/2016	109402	109402	109394	109394	0
01/20/2016	109045	109060	109043	109060	0
01/21/2016	108908	108909	108906	108907	0
01/22/2016	108052	108052	108034	108034	0
01/25/2016	108498	108499	108490	108491	0
01/26/2016	108648	108652	108646	108652	0
01/27/2016	109165	109177	109156	109177	0
01/28/2016	109663	109669	109656	109669	0
01/29/2016	108390	108394	108387	108387	0
02/01/2016	109045	109045	109032	109033	0
02/02/2016	109275	109278	109270	109270	0
02/03/2016	110994	111028	110994	111028	0
02/04/2016	112223	112223	112219	112219	0
02/05/2016	111518	111543	111518	111543	0
02/08/2016	112225	112226	112215	112216	0
02/09/2016	112962	112963	112957	112960	0
02/10/2016	112860	112894	112860	112894	0
02/11/2016	113332	113332	113309	113321	0
02/12/2016	112615	112639	112615	112639	0
02/16/2016	111510	111520	111510	111517	0
02/17/2016	111453	111459	111449	111459	0
02/18/2016	111040	111040	111032	111034	0
02/19/2016	111425	111425	111416	111416	0
02/22/2016	110317	110317	110312	110312	0
02/23/2016	110136	110146	110135	110145	0
02/24/2016	110190	110192	110190	110192	0
02/25/2016	110472	110472	110449	110449	0
02/26/2016	109304	109315	109304	109315	0
02/29/2016	108876	108876	108852	108852	0
03/01/2016	108703	108703	108695	108695	0
03/02/2016	108684	108687	108671	108671	0
03/03/2016	109588	109598	109583	109583	0
03/04/2016	109996	110009	109996	110006	0
03/07/2016	110181	110188	110180	110187	0
03/08/2016	110045	110050	110042	110048	0
03/09/2016	110054	110055	110040	110040	0
03/10/2016	112000	112007	112000	112006	0
03/11/2016	111874	111875	111869	111873	0
03/14/2016	111221	111242	111221	111242	0
03/15/2016	111374	111384	111373	111384	0
03/16/2016	112231	112243	112223	112243	0
03/17/2016	113462	113477	113462	113476	0
03/18/2016	112945	112961	112945	112961	0
03/21/2016	112801	112802	112800	112802	0
03/22/2016	112459	112468	112459	112466	0
03/23/2016	112085	112085	112079	112079	0
03/24/2016	111960	111972	111960	111972	0
03/28/2016	112278	112278	112272	112273	0
03/29/2016	113218	113222	113218	113220	0
03/30/2016	113592	113604	113592	113599	0
03/31/2016	114121	114126	114117	114118	0
04/01/2016	114163	114172	114161	114167	0
04/04/2016	114177	114197	114177	114197	0
04/05/2016	114078	114084	114075	114084	0
04/06/2016	114272	114292	114272	114292	0
04/07/2016	113990	114005	113990	114005	0
04/08/2016	114188	114195	114186	114191	0
04/11/2016	114352	114352	114328	114328	0
04/12/2016	114175	114177	114174	114174	0
04/13/2016	113020	113035	113017	113035	0
04/14/2016	112840	112854	112840	112854	0
04/15/2016	113044	113047	113044	113047	0
04/18/2016	113344	113346	113322	113322	0
04/19/2016	113945	113946	113929	113930	0
04/20/2016	113192	113193	113188	113191	0
04/21/2016	113110	113118	113107	113116	0
04/22/2016	112460	112460	112446	112446	0
04/25/2016	112780	112780	112760	112760	0
04/26/2016	113055	113055	113051	113054	0
04/27/2016	113410	113427	113409	113411	0
04/28/2016	113659	113659	113638	113638	0
04/29/2016	114618	114650	114618	114650	0
05/02/2016	115373	115376	115367	115370	0
05/03/2016	115201	115203	115199	115203	0
05/04/2016	115136	115143	115136	115143	0
05/05/2016	114122	114122	114112	114112	0
05/06/2016	114098	114101	114097	114099	0
05/09/2016	113998	114002	113992	113993	0
05/10/2016	113810	113810	113802	113804	0
05/11/2016	114372	114372	114362	114364	0
05/12/2016	113855	113855	113847	113847	0
05/13/2016	113169	113171	113164	113164	0
05/16/2016	113275	113275	113270	113270	0
05/17/2016	113264	113265	113259	113259	0
05/18/2016	112387	112387	112376	112376	0
05/19/2016	112078	112080	112069	112079	0
05/20/2016	112260	112261	112255	112256	0
05/23/2016	112281	112284	112264	112264	0
05/24/2016	111505	111519	111505	111518	0
05/25/2016	111695	111695	111681	111681	0
05/26/2016	111966	111966	111948	111949	0
05/27/2016	111422	111436	111422	111433	0
05/31/2016	111303	111303	111297	111298	0
06/01/2016	111855	111866	111852	111866	0
06/02/2016	111518	111530	111518	111528	0
06/03/2016	113475	113480	113473	113480	0
06/06/2016	113754	113763	113754	113762	0
06/07/2016	113646	113647	113644	113646	0
06/08/2016	113989	113990	113987	113988	0
06/09/2016	113300	113323	113300	113319	0
06/10/2016	112976	112984	112972	112980	0
06/13/2016	113318	113321	113315	113321	0
06/14/2016	112429	112429	112420	112420	0
06/15/2016	113033	113033	113025	113026	0
06/16/2016	112747	112755	112744	112755	0
06/17/2016	113080	113080	113063	113068	0
06/20/2016	113493	113517	113493	113517	0
06/21/2016	112954	112954	112942	112942	0
06/22/2016	113456	113461	113456	113459	0
06/23/2016	113935	113935	113904	113904	0
06/24/2016	111606	111606	111554	111554	0
06/27/2016	110357	110367	110357	110360	0
06/28/2016	110809	110809	110793	110794	0
06/29/2016	111383	111383	111379	111379	0
06/30/2016	111046	111073	111046	111073	0
07/01/2016	111623	111650	111622	111650	0
07/05/2016	111020	111020	111003	111007	0
07/06/2016	111340	111343	111339	111339	0
07/07/2016	110841	110844	110840	110840	0
07/08/2016	110782	110782	110772	110773	0
07/11/2016	110845	110853	110842	110849	0
07/12/2016	110950	110959	110949	110959	0
07/13/2016	111360	111361	111354	111354	0
07/14/2016	111479	111484	111479	111483	0
07/15/2016	110895	110895	110884	110884	0
07/18/2016	110957	110960	110955	110960	0
07/19/2016	110421	110422	110415	110417	0
07/20/2016	110296	110304	110296	110300	0
07/21/2016	110384	110384	110381	110384	0
07/22/2016	109866	109867	109862	109863	0
07/25/2016	110128	110139	110128	110139	0
07/26/2016	110108	110115	110107	110112	0
07/27/2016	110445	110445	110428	110430	0
07/28/2016	110934	110957	110934	110957	0
07/29/2016	112015	112019	112014	112014	0
08/01/2016	111905	111908	111905	111908	0
08/02/2016	112496	112496	112476	112478	0
08/03/2016	111656	111672	111655	111670	0
08/04/2016	111490	111493	111490	111493	0
08/05/2016	111100	111101	111097	111097	0
08/08/2016	111011	111011	111004	111004	0
08/09/2016	111245	111256	111245	111256	0
08/10/2016	111909	111918	111909	111917	0
08/11/2016	111578	111588	111577	111588	0
08/12/2016	111775	111777	111768	111777	0
08/15/2016	111969	111969	111963	111963	0
08/16/2016	112901	112904	112896	112904	0
08/17/2016	113038	113043	113038	113042	0
08/18/2016	113676	113679	113671	113672	0
08/19/2016	113355	113355	113354	113354	0
08/22/2016	113366	113366	113362	113363	0
08/23/2016	113196	113196	113173	113173	0
08/24/2016	112728	112736	112722	112736	0
08/25/2016	112893	112894	112892	112892	0
