11/16/2011	109090	109100	109080	109100	0
11/17/2011	108730	108730	108730	108730	0
11/18/2011	109020	109020	109010	109010	0
11/21/2011	109140	109140	109120	109120	0
11/22/2011	109370	109370	109350	109350	0
11/23/2011	108660	108660	108650	108650	0
11/25/2011	107560	107590	107550	107550	0
11/28/2011	108320	108320	108320	108320	0
11/29/2011	108720	108720	108700	108710	0
11/30/2011	109530	109560	109520	109560	0
12/01/2011	109110	109120	109110	109120	0
12/02/2011	108610	108610	108590	108590	0
12/05/2011	108660	108670	108660	108670	0
12/06/2011	108020	108030	108010	108030	0
12/07/2011	108200	108200	108190	108190	0
12/08/2011	107870	107880	107870	107880	0
12/09/2011	108220	108220	108190	108190	0
12/12/2011	106970	106970	106950	106960	0
12/13/2011	106020	106020	105990	105990	0
12/14/2011	105190	105190	105180	105180	0
12/15/2011	106570	106570	106550	106550	0
12/16/2011	106910	106910	106910	106910	0
12/19/2011	107030	107050	107030	107040	0
12/20/2011	107570	107600	107570	107600	0
12/21/2011	107050	107050	107040	107040	0
12/22/2011	107050	107050	107020	107020	0
12/23/2011	106990	107010	106990	107010	0
12/27/2011	107270	107290	107270	107290	0
12/28/2011	106310	106310	106290	106290	0
12/29/2011	106350	106350	106350	106350	0
12/30/2011	106710	106710	106700	106700	0
01/03/2012	107440	107450	107440	107450	0
01/04/2012	106260	106260	106250	106260	0
01/05/2012	105060	105060	105020	105020	0
01/06/2012	104830	104830	104820	104830	0
01/09/2012	105290	105290	105280	105280	0
01/10/2012	105550	105560	105550	105560	0
01/11/2012	104840	104840	104810	104810	0
01/12/2012	106080	106080	106070	106070	0
01/13/2012	104980	104980	104940	104940	0
01/17/2012	105310	105320	105310	105320	0
01/18/2012	106390	106390	106360	106360	0
01/19/2012	107140	107150	107140	107150	0
01/20/2012	107010	107010	106990	106990	0
01/23/2012	107900	107910	107900	107910	0
01/24/2012	107770	107770	107760	107770	0
01/25/2012	108430	108430	108420	108420	0
01/26/2012	108750	108760	108750	108760	0
01/27/2012	109600	109600	109580	109590	0
01/30/2012	108980	108980	108970	108970	0
01/31/2012	108750	108760	108750	108760	0
02/01/2012	109280	109280	109270	109280	0
02/02/2012	109160	109160	109140	109140	0
02/03/2012	109000	109020	109000	109010	0
02/06/2012	108860	108880	108860	108880	0
02/07/2012	109600	109630	109600	109630	0
02/08/2012	109600	109600	109590	109590	0
02/09/2012	109750	109750	109750	109750	0
02/10/2012	109030	109030	109030	109030	0
02/13/2012	109270	109270	109230	109230	0
02/14/2012	108510	108520	108510	108520	0
02/15/2012	108300	108300	108270	108270	0
02/16/2012	108880	108880	108880	108880	0
02/17/2012	108910	108910	108900	108900	0
02/21/2012	109700	109700	109700	109700	0
02/22/2012	109840	109840	109830	109840	0
02/23/2012	110620	110620	110610	110620	0
02/24/2012	111740	111770	111740	111770	0
02/27/2012	111190	111190	111160	111160	0
02/28/2012	111690	111690	111680	111690	0
02/29/2012	110680	110690	110680	110690	0
03/01/2012	110400	110400	110400	110400	0
03/02/2012	109430	109450	109430	109450	0
03/05/2012	109690	109690	109680	109680	0
03/06/2012	108790	108790	108780	108780	0
03/07/2012	109110	109110	109100	109100	0
03/08/2012	110110	110110	110100	110110	0
03/09/2012	108690	108690	108690	108690	0
03/12/2012	109170	109170	109160	109170	0
03/13/2012	108490	108490	108480	108480	0
03/14/2012	107620	107620	107600	107600	0
03/15/2012	108620	108620	108620	108620	0
03/16/2012	109340	109340	109320	109320	0
03/19/2012	109840	109850	109840	109850	0
03/20/2012	109840	109850	109820	109830	0
03/21/2012	109640	109640	109630	109640	0
03/22/2012	109460	109460	109460	109460	0
03/23/2012	110180	110180	110170	110180	0
03/26/2012	110790	110790	110790	110790	0
03/27/2012	110750	110750	110730	110730	0
03/28/2012	110630	110640	110630	110630	0
03/29/2012	110350	110350	110340	110340	0
03/30/2012	110890	110890	110860	110860	0
04/02/2012	110820	110820	110820	110820	0
04/03/2012	109820	109840	109820	109840	0
04/04/2012	109270	109270	109250	109250	0
04/05/2012	108790	108810	108790	108810	0
04/06/2012	108790	109030	108790	109030	0
04/09/2012	109290	109290	109270	109270	0
04/10/2012	108970	108970	108970	108970	0
04/11/2012	109150	109150	109130	109130	0
04/12/2012	109930	109930	109920	109920	0
04/13/2012	108840	108840	108820	108820	0
04/16/2012	109390	109400	109390	109400	0
04/17/2012	109450	109450	109440	109440	0
04/18/2012	109310	109310	109300	109300	0
04/19/2012	109310	109310	109310	109310	0
04/20/2012	110060	110070	110060	110070	0
04/23/2012	109440	109440	109430	109430	0
04/24/2012	109850	109850	109840	109840	0
04/25/2012	110130	110180	110130	110180	0
04/26/2012	110220	110220	110210	110210	0
04/27/2012	110430	110450	110430	110450	0
04/30/2012	110280	110280	110270	110270	0
05/01/2012	110140	110150	110130	110150	0
05/02/2012	109560	109560	109560	109560	0
05/03/2012	109500	109500	109500	109500	0
05/04/2012	109000	109010	109000	109010	0
05/07/2012	108690	108690	108680	108690	0
05/08/2012	108530	108530	108510	108510	0
05/09/2012	107850	107850	107850	107850	0
05/10/2012	107870	107870	107860	107860	0
05/11/2012	107610	107610	107610	107610	0
05/14/2012	106980	106980	106970	106970	0
05/15/2012	106060	106070	106060	106070	0
05/16/2012	105980	105980	105960	105960	0
05/17/2012	105910	105910	105900	105900	0
05/18/2012	106110	106110	106090	106090	0
05/21/2012	106500	106500	106490	106500	0
05/22/2012	105940	105940	105930	105930	0
05/23/2012	104730	104730	104720	104720	0
05/24/2012	104300	104300	104280	104280	0
05/25/2012	104260	104260	104250	104250	0
05/29/2012	104020	104030	104020	104030	0
05/30/2012	103140	103140	103130	103130	0
05/31/2012	103000	103010	103000	103000	0
06/01/2012	103370	103380	103370	103370	0
06/04/2012	104030	104040	104030	104030	0
06/05/2012	103650	103650	103640	103640	0
06/06/2012	104500	104510	104500	104510	0
06/07/2012	104930	104940	104930	104940	0
06/08/2012	104160	104160	104150	104150	0
06/11/2012	104310	104320	104310	104320	0
06/12/2012	104340	104340	104340	104340	0
06/13/2012	105070	105070	105070	105070	0
06/14/2012	105160	105160	105150	105150	0
06/15/2012	105490	105490	105480	105480	0
06/18/2012	104980	104990	104980	104990	0
06/19/2012	105900	105910	105890	105910	0
06/20/2012	105700	105700	105680	105680	0
06/21/2012	104760	104760	104740	104740	0
06/22/2012	104830	104830	104830	104830	0
06/25/2012	104290	104290	104280	104280	0
06/26/2012	104280	104280	104280	104280	0
06/27/2012	103940	103940	103930	103940	0
06/28/2012	103680	103680	103670	103680	0
06/29/2012	105600	105610	105600	105610	0
07/02/2012	104970	104980	104970	104970	0
07/03/2012	105210	105220	105210	105220	0
07/05/2012	103310	103320	103310	103320	0
07/06/2012	102360	102360	102350	102350	0
07/09/2012	102680	102680	102660	102660	0
07/10/2012	102180	102180	102180	102180	0
07/11/2012	101920	101930	101920	101930	0
07/12/2012	101710	101710	101700	101700	0
07/13/2012	102060	102060	102060	102060	0
07/16/2012	102370	102370	102360	102360	0
07/17/2012	102400	102400	102400	102400	0
07/18/2012	102230	102230	102230	102230	0
07/19/2012	102360	102360	102360	102360	0
07/20/2012	101370	101370	101360	101370	0
07/23/2012	101100	101100	101090	101090	0
07/24/2012	100570	100570	100560	100560	0
07/25/2012	101360	101360	101350	101350	0
07/26/2012	102440	102440	102420	102420	0
07/27/2012	102600	102600	102580	102590	0
07/30/2012	102190	102190	102180	102180	0
07/31/2012	102560	102570	102550	102570	0
08/01/2012	101950	101960	101950	101960	0
08/02/2012	101410	101420	101410	101420	0
08/03/2012	103090	103100	103090	103090	0
08/06/2012	103280	103280	103270	103270	0
08/07/2012	103390	103410	103390	103410	0
08/08/2012	102930	102930	102920	102920	0
08/09/2012	102440	102440	102440	102440	0
08/10/2012	102450	102450	102450	102450	0
08/13/2012	102770	102770	102740	102740	0
08/14/2012	102730	102740	102730	102740	0
08/15/2012	102380	102380	102370	102370	0
08/16/2012	102980	102980	102980	102980	0
08/17/2012	102650	102650	102650	102650	0
08/20/2012	102840	102840	102840	102840	0
08/21/2012	103850	103860	103850	103850	0
08/22/2012	104380	104380	104360	104360	0
08/23/2012	104670	104670	104660	104660	0
08/24/2012	104280	104290	104280	104280	0
08/27/2012	104140	104140	104140	104140	0
08/28/2012	104660	104660	104650	104650	0
08/29/2012	104340	104340	104330	104340	0
08/30/2012	104160	104170	104160	104170	0
08/31/2012	104780	104800	104780	104800	0
09/04/2012	104670	104670	104670	104670	0
09/05/2012	104680	104680	104660	104660	0
09/06/2012	104950	104950	104950	104950	0
09/07/2012	105770	105770	105770	105770	0
09/10/2012	105780	105810	105780	105810	0
09/11/2012	106680	106690	106680	106690	0
09/12/2012	106840	106840	106830	106830	0
09/13/2012	107110	107120	107110	107120	0
09/14/2012	108020	108020	108010	108010	0
09/17/2012	107880	107910	107880	107910	0
09/18/2012	107760	107760	107740	107740	0
09/19/2012	107960	107960	107960	107960	0
09/20/2012	107360	107360	107350	107350	0
09/21/2012	107410	107410	107400	107400	0
09/24/2012	107000	107020	107000	107020	0
09/25/2012	106960	106960	106960	106960	0
09/26/2012	106510	106530	106510	106530	0
09/27/2012	106880	106880	106860	106860	0
09/28/2012	106510	106510	106490	106490	0
10/01/2012	106710	106710	106710	106710	0
10/02/2012	106930	106930	106920	106920	0
10/03/2012	106620	106620	106610	106610	0
10/04/2012	107600	107600	107590	107590	0
10/05/2012	107700	107710	107700	107710	0
10/08/2012	107320	107320	107300	107300	0
10/09/2012	106450	106460	106450	106460	0
10/10/2012	106650	106660	106650	106660	0
10/11/2012	107120	107120	107110	107110	0
10/12/2012	107300	107300	107290	107290	0
10/15/2012	107190	107190	107180	107180	0
10/16/2012	108020	108020	108010	108010	0
10/17/2012	108560	108570	108560	108570	0
10/18/2012	108160	108170	108160	108170	0
10/19/2012	107810	107810	107800	107800	0
10/22/2012	107890	107890	107880	107880	0
10/23/2012	107240	107240	107230	107230	0
10/24/2012	107330	107330	107320	107320	0
10/25/2012	107090	107100	107090	107100	0
10/26/2012	107000	107000	107000	107000	0
10/30/2012	107360	107360	107340	107350	0
10/31/2012	107440	107450	107440	107450	0
11/01/2012	107360	107360	107350	107350	0
11/02/2012	106320	106320	106320	106320	0
11/05/2012	106030	106040	106030	106040	0
11/06/2012	106090	106100	106080	106080	0
11/07/2012	105890	105900	105890	105900	0
11/08/2012	105770	105780	105770	105780	0
11/09/2012	105460	105460	105450	105460	0
11/12/2012	105540	105540	105540	105540	0
11/13/2012	105610	105610	105610	105610	0
11/14/2012	105940	105950	105940	105950	0
11/15/2012	106170	106170	106160	106170	0
11/16/2012	105710	105710	105700	105700	0
11/19/2012	106400	106400	106390	106400	0
11/20/2012	106340	106350	106340	106350	0
11/21/2012	106560	106560	106550	106550	0
11/23/2012	107840	107860	107840	107860	0
11/26/2012	107710	107710	107700	107710	0
11/27/2012	107470	107470	107460	107470	0
11/28/2012	107490	107490	107480	107480	0
11/29/2012	107800	107800	107790	107790	0
11/30/2012	107860	107870	107860	107870	0
12/03/2012	108050	108050	108050	108050	0
12/04/2012	108010	108010	108010	108010	0
12/05/2012	107980	107980	107970	107970	0
12/06/2012	107180	107190	107180	107190	0
12/07/2012	107010	107010	107010	107010	0
12/10/2012	107340	107340	107340	107340	0
12/11/2012	107400	107400	107400	107400	0
12/12/2012	108200	108210	108200	108200	0
12/13/2012	108420	108430	108420	108430	0
12/14/2012	109100	109110	109100	109110	0
12/17/2012	109120	109120	109120	109120	0
12/18/2012	109640	109640	109640	109640	0
12/19/2012	109820	109830	109820	109830	0
12/20/2012	109840	109840	109840	109840	0
12/21/2012	109280	109280	109270	109270	0
12/24/2012	109420	109480	109420	109470	0
12/26/2012	109700	109700	109690	109690	0
12/27/2012	109640	109640	109630	109630	0
12/28/2012	109660	109660	109650	109650	0
12/31/2012	109500	109500	109480	109480	0
01/02/2013	108980	109000	108980	109000	0
01/03/2013	108120	108120	108110	108110	0
01/04/2013	108220	108230	108220	108220	0
01/07/2013	108620	108620	108610	108610	0
01/08/2013	108340	108340	108340	108340	0
01/09/2013	108100	108100	108100	108100	0
01/10/2013	109440	109440	109440	109440	0
01/11/2013	109610	109620	109610	109620	0
01/14/2013	108540	108560	108530	108560	0
01/15/2013	107370	107370	107360	107370	0
01/16/2013	107400	107400	107380	107380	0
01/17/2013	107260	107270	107260	107270	0
01/18/2013	107020	107020	107000	107010	0
01/22/2013	107690	107690	107680	107680	0
01/23/2013	107640	107640	107630	107630	0
01/24/2013	107780	107790	107780	107790	0
01/25/2013	108010	108010	108000	108010	0
01/28/2013	108020	108020	108020	108020	0
01/29/2013	108510	108520	108510	108510	0
01/30/2013	109790	109820	109790	109820	0
01/31/2013	109980	109990	109980	109990	0
02/01/2013	110220	110230	110220	110230	0
02/04/2013	110160	110160	110150	110150	0
02/05/2013	110160	110170	110160	110170	0
02/06/2013	110000	110000	110000	110000	0
02/07/2013	108990	108990	108990	108990	0
02/08/2013	109060	109070	109060	109070	0
02/11/2013	108890	108890	108880	108890	0
02/12/2013	109010	109010	109000	109000	0
02/13/2013	109010	109010	109010	109010	0
02/14/2013	108390	108400	108390	108400	0
02/15/2013	108450	108450	108440	108450	0
02/19/2013	108370	108370	108360	108360	0
02/20/2013	107790	107790	107770	107770	0
02/21/2013	107320	107330	107320	107330	0
02/22/2013	107520	107520	107490	107490	0
02/25/2013	107470	107480	107470	107480	0
02/26/2013	107310	107320	107310	107310	0
02/27/2013	107410	107410	107400	107400	0
02/28/2013	106800	106800	106770	106770	0
03/01/2013	105980	105980	105970	105980	0
03/04/2013	106290	106290	106280	106280	0
03/05/2013	106200	106200	106180	106190	0
03/06/2013	105540	105540	105540	105540	0
03/07/2013	106090	106090	106090	106090	0
03/08/2013	105100	105100	105100	105100	0
03/11/2013	105640	105640	105640	105640	0
03/12/2013	105690	105690	105670	105680	0
03/13/2013	105100	105100	105090	105090	0
03/14/2013	105670	105670	105660	105660	0
03/15/2013	106470	106470	106460	106460	0
03/18/2013	105870	105880	105870	105880	0
03/19/2013	105650	105650	105640	105640	0
03/20/2013	106110	106110	106090	106090	0
03/21/2013	105780	105780	105780	105780	0
03/22/2013	106350	106360	106350	106360	0
03/25/2013	105630	105630	105600	105600	0
03/26/2013	105560	105570	105560	105560	0
03/27/2013	104970	104980	104960	104960	0
03/28/2013	105460	105460	105460	105460	0
04/01/2013	105700	105710	105700	105700	0
04/02/2013	105430	105440	105430	105440	0
04/03/2013	105940	105940	105930	105930	0
04/04/2013	106510	106520	106510	106510	0
04/05/2013	107280	107280	107270	107270	0
04/08/2013	106960	106960	106960	106960	0
04/09/2013	107440	107440	107440	107440	0
04/10/2013	107260	107260	107250	107250	0
04/11/2013	107550	107550	107540	107550	0
04/12/2013	107620	107630	107620	107630	0
04/15/2013	107350	107350	107340	107350	0
04/16/2013	108600	108610	108600	108610	0
04/17/2013	107170	107170	107170	107170	0
04/18/2013	107330	107330	107320	107320	0
04/19/2013	107200	107200	107190	107190	0
04/22/2013	107050	107050	107050	107050	0
04/23/2013	105890	105900	105870	105900	0
04/24/2013	105690	105690	105680	105690	0
04/25/2013	105840	105840	105830	105830	0
04/26/2013	106140	106140	106130	106130	0
04/29/2013	106790	106790	106780	106780	0
04/30/2013	107550	107650	107550	107650	0
05/01/2013	108080	108080	108080	108080	0
05/02/2013	106980	106990	106970	106980	0
05/03/2013	106910	106910	106900	106900	0
05/06/2013	106600	106600	106600	106600	0
05/07/2013	106430	106430	106420	106430	0
05/08/2013	106950	106950	106950	106950	0
05/09/2013	105400	105410	105390	105410	0
05/10/2013	104580	104580	104550	104550	0
05/13/2013	104380	104380	104370	104370	0
05/14/2013	103570	103570	103570	103570	0
05/15/2013	103580	103580	103580	103580	0
05/16/2013	104050	104050	104040	104050	0
05/17/2013	102800	102800	102800	102800	0
05/20/2013	103540	103540	103530	103530	0
05/21/2013	103080	103080	103070	103080	0
05/22/2013	102070	102090	102060	102090	0
05/23/2013	103260	103260	103210	103210	0
05/24/2013	103970	103970	103960	103970	0
05/28/2013	102770	102770	102760	102770	0
05/29/2013	103840	103840	103820	103820	0
05/30/2013	104900	104900	104870	104870	0
05/31/2013	104300	104300	104220	104220	0
06/03/2013	105580	105610	105580	105610	0
06/04/2013	105610	105610	105600	105600	0
06/05/2013	106210	106210	106200	106200	0
06/06/2013	107570	107570	107570	107570	0
06/07/2013	106980	106980	106970	106970	0
06/10/2013	107300	107310	107300	107310	0
06/11/2013	108270	108280	108270	108280	0
06/12/2013	108580	108580	108570	108570	0
06/13/2013	108590	108590	108590	108590	0
06/14/2013	108540	108540	108520	108520	0
06/17/2013	108270	108270	108270	108270	0
06/18/2013	108840	108840	108840	108840	0
06/19/2013	107490	107590	107490	107590	0
06/20/2013	107860	107880	107860	107880	0
06/21/2013	107160	107160	107150	107150	0
06/24/2013	107300	107300	107290	107290	0
06/25/2013	106730	106740	106730	106730	0
06/26/2013	106110	106110	106100	106110	0
06/27/2013	105910	105920	105910	105920	0
06/28/2013	106000	106040	106000	106040	0
07/01/2013	105810	105810	105790	105800	0
07/02/2013	105260	105260	105260	105260	0
07/03/2013	105730	105730	105720	105720	0
07/05/2013	103830	103830	103810	103810	0
07/08/2013	103850	103850	103850	103850	0
07/09/2013	102880	102880	102880	102880	0
07/10/2013	103610	103620	103600	103620	0
07/11/2013	105760	105760	105720	105730	0
07/12/2013	105680	105690	105680	105690	0
07/15/2013	105520	105540	105520	105540	0
07/16/2013	106450	106450	106440	106440	0
07/17/2013	106270	106290	106270	106290	0
07/18/2013	105850	105850	105850	105850	0
07/19/2013	106290	106290	106280	106280	0
07/22/2013	106860	106860	106850	106850	0
07/23/2013	107080	107080	107070	107070	0
07/24/2013	106680	106680	106670	106680	0
07/25/2013	107380	107380	107370	107370	0
07/26/2013	107730	107730	107730	107730	0
07/29/2013	107540	107540	107540	107540	0
07/30/2013	107670	107680	107660	107660	0
07/31/2013	108290	108320	108290	108320	0
08/01/2013	106810	106810	106810	106810	0
08/02/2013	107720	107720	107710	107720	0
08/05/2013	107780	107780	107770	107770	0
08/06/2013	108040	108040	108030	108030	0
08/07/2013	108530	108530	108520	108530	0
08/08/2013	108810	108810	108800	108800	0
08/09/2013	108440	108440	108440	108440	0
08/12/2013	108120	108150	108110	108150	0
08/13/2013	107220	107220	107190	107190	0
08/14/2013	107000	107000	106990	107000	0
08/15/2013	108080	108080	108060	108060	0
08/16/2013	107980	108000	107970	108000	0
08/19/2013	108330	108330	108330	108330	0
08/20/2013	109070	109070	109060	109070	0
08/21/2013	108580	108580	108560	108560	0
08/22/2013	108260	108260	108250	108260	0
08/23/2013	108510	108510	108500	108500	0
08/26/2013	108340	108340	108340	108340	0
08/27/2013	108910	108910	108910	108910	0
08/28/2013	108510	108520	108510	108520	0
08/29/2013	107420	107440	107420	107440	0
08/30/2013	107410	107420	107400	107420	0
09/03/2013	106800	106800	106800	106800	0
09/04/2013	106830	106830	106830	106830	0
09/05/2013	105850	105850	105840	105840	0
09/06/2013	106650	106650	106640	106640	0
09/09/2013	107400	107400	107380	107380	0
09/10/2013	107060	107060	107050	107050	0
09/11/2013	107570	107580	107570	107580	0
09/12/2013	107580	107590	107580	107580	0
09/13/2013	107700	107700	107690	107700	0
09/16/2013	107880	107880	107870	107870	0
09/17/2013	108090	108090	108080	108080	0
09/18/2013	109380	109560	109380	109560	0
09/19/2013	109930	109930	109890	109890	0
09/20/2013	109940	109940	109930	109930	0
09/23/2013	109860	109860	109860	109860	0
09/24/2013	109660	109670	109660	109670	0
09/25/2013	110050	110050	110040	110040	0
09/26/2013	109930	109930	109920	109930	0
09/27/2013	110450	110470	110450	110470	0
09/30/2013	110670	110690	110670	110690	0
10/01/2013	110460	110470	110460	110470	0
10/02/2013	110860	110860	110850	110850	0
10/03/2013	111240	111240	111230	111230	0
10/04/2013	110330	110330	110310	110310	0
10/07/2013	110700	110720	110700	110710	0
10/08/2013	110640	110640	110630	110630	0
10/09/2013	109940	109940	109920	109920	0
10/10/2013	109880	109890	109880	109890	0
10/11/2013	109800	109800	109790	109790	0
10/14/2013	110170	110170	110170	110170	0
10/15/2013	109590	109590	109580	109580	0
10/16/2013	109510	109520	109510	109520	0
10/17/2013	110920	110920	110920	110920	0
10/18/2013	110870	110870	110870	110870	0
10/21/2013	110910	110910	110900	110900	0
10/22/2013	111830	111830	111820	111820	0
10/23/2013	112160	112160	112160	112160	0
10/24/2013	112150	112150	112150	112150	0
10/25/2013	112050	112070	112040	112070	0
10/28/2013	111870	111870	111860	111860	0
10/29/2013	111320	111320	111320	111320	0
10/30/2013	111130	111160	111130	111160	0
10/31/2013	110460	110470	110460	110470	0
11/01/2013	109610	109610	109600	109610	0
11/04/2013	109990	109990	109980	109980	0
11/05/2013	109590	109590	109580	109580	0
11/06/2013	109710	109710	109690	109690	0
11/07/2013	109210	109210	109200	109200	0
11/08/2013	108430	108430	108420	108420	0
11/11/2013	108710	108710	108710	108710	0
11/12/2013	108950	108950	108930	108930	0
11/13/2013	109320	109320	109300	109310	0
11/14/2013	109150	109150	109140	109140	0
11/15/2013	109300	109300	109290	109290	0
11/18/2013	109500	109500	109480	109480	0
11/19/2013	109740	109740	109730	109740	0
11/20/2013	108910	108940	108910	108940	0
11/21/2013	109310	109310	109300	109300	0
11/22/2013	110260	110260	110250	110250	0
11/25/2013	109660	109670	109660	109670	0
11/26/2013	110360	110360	110360	110360	0
11/27/2013	110130	110150	110130	110150	0
11/29/2013	110380	110380	110280	110280	0
12/02/2013	110090	110090	110070	110070	0
12/03/2013	110560	110560	110550	110550	0
12/04/2013	110810	110810	110790	110790	0
12/05/2013	111650	111650	111630	111630	0
12/06/2013	112050	112060	112050	112060	0
12/09/2013	112410	112430	112410	112430	0
12/10/2013	112830	112830	112830	112830	0
12/11/2013	112890	112890	112890	112890	0
12/12/2013	112520	112530	112520	112530	0
12/13/2013	112460	112460	112460	112460	0
12/16/2013	112820	112820	112810	112820	0
12/17/2013	113100	113100	113090	113090	0
12/18/2013	112720	112730	112710	112730	0
12/19/2013	111380	111390	111380	111380	0
12/20/2013	111680	111710	111680	111710	0
12/23/2013	111890	111900	111890	111900	0
12/24/2013	111680	111690	111680	111690	0
12/26/2013	111650	111650	111630	111640	0
12/27/2013	112140	112140	112110	112110	0
12/30/2013	112780	112780	112770	112770	0
12/31/2013	112490	112570	112490	112570	0
01/02/2014	111070	111070	111060	111070	0
01/03/2014	110580	110600	110580	110600	0
01/06/2014	110660	110670	110660	110670	0
01/07/2014	110130	110130	110110	110120	0
01/08/2014	109890	109890	109870	109870	0
01/09/2014	110140	110140	110130	110130	0
01/10/2014	110790	110790	110760	110760	0
01/13/2014	111270	111270	111250	111250	0
01/14/2014	110830	110830	110820	110820	0
01/15/2014	110080	110080	110070	110080	0
01/16/2014	110600	110600	110580	110580	0
01/17/2014	109790	109790	109790	109790	0
01/21/2014	109910	109910	109910	109910	0
01/22/2014	109760	109760	109750	109750	0
01/23/2014	111480	111490	111480	111480	0
01/24/2014	111790	111790	111770	111770	0
01/27/2014	111510	111510	111500	111500	0
01/28/2014	111430	111440	111430	111440	0
01/29/2014	111880	111880	111850	111850	0
01/30/2014	110740	110750	110740	110750	0
01/31/2014	110340	110340	110240	110240	0
02/03/2014	111070	111070	111050	111050	0
02/04/2014	110610	110620	110610	110610	0
02/05/2014	110750	110750	110740	110740	0
02/06/2014	111050	111050	111050	111050	0
02/07/2014	111440	111440	111440	111440	0
02/10/2014	111520	111520	111520	111520	0
02/11/2014	111370	111370	111370	111370	0
02/12/2014	111090	111090	111090	111090	0
02/13/2014	111860	111860	111850	111850	0
02/14/2014	112180	112180	112180	112180	0
02/18/2014	112600	112600	112590	112590	0
02/19/2014	112650	112650	112630	112630	0
02/20/2014	112470	112480	112470	112470	0
02/21/2014	112750	112760	112750	112760	0
02/24/2014	112520	112520	112510	112510	0
02/25/2014	112760	112760	112750	112750	0
02/26/2014	112220	112240	112220	112240	0
02/27/2014	112600	112600	112590	112590	0
02/28/2014	113860	113900	113860	113900	0
03/03/2014	113210	113230	113210	113230	0
03/04/2014	112700	112710	112700	112710	0
03/05/2014	112690	112690	112660	112660	0
03/06/2014	113600	113600	113590	113590	0
03/07/2014	114000	114000	113990	113990	0
03/10/2014	113970	113970	113950	113950	0
03/11/2014	114070	114070	114060	114060	0
03/12/2014	114480	114480	114470	114470	0
03/13/2014	114330	114340	114330	114330	0
03/14/2014	114690	114690	114680	114680	0
03/17/2014	114620	114620	114600	114600	0
03/18/2014	114540	114540	114540	114540	0
03/19/2014	113520	113520	113450	113450	0
03/20/2014	113230	113240	113230	113240	0
03/21/2014	113400	113400	113380	113380	0
03/24/2014	113580	113590	113580	113590	0
03/25/2014	113370	113370	113350	113360	0
03/26/2014	113080	113110	113070	113110	0
03/27/2014	112920	112920	112910	112910	0
03/28/2014	112840	112840	112830	112830	0
03/31/2014	113190	113190	113180	113180	0
04/01/2014	113250	113250	113250	113250	0
04/02/2014	112840	112840	112840	112840	0
04/03/2014	112220	112250	112220	112250	0
04/04/2014	112200	112200	112180	112180	0
04/07/2014	112700	112710	112700	112710	0
04/08/2014	113280	113280	113280	113280	0
04/09/2014	113780	113780	113760	113760	0
04/10/2014	114200	114200	114190	114190	0
04/11/2014	114320	114320	114310	114310	0
04/14/2014	113750	113750	113730	113730	0
04/15/2014	113640	113640	113640	113640	0
04/16/2014	113500	113510	113500	113510	0
04/17/2014	113400	113400	113400	113400	0
04/21/2014	113070	113080	113070	113080	0
04/22/2014	113050	113050	113030	113030	0
04/23/2014	113290	113290	113270	113270	0
04/24/2014	113420	113420	113410	113410	0
04/25/2014	113550	113560	113550	113560	0
04/28/2014	113700	113700	113700	113700	0
04/29/2014	113190	113210	113190	113210	0
04/30/2014	113680	113690	113670	113690	0
05/01/2014	113780	113780	113770	113770	0
05/02/2014	113940	113940	113930	113930	0
05/05/2014	113990	113990	113980	113990	0
05/06/2014	114490	114500	114490	114490	0
05/07/2014	114200	114200	114200	114200	0
05/08/2014	113770	113770	113760	113760	0
05/09/2014	112730	112740	112730	112740	0
05/12/2014	112620	112620	112610	112620	0
05/13/2014	112330	112330	112330	112330	0
05/14/2014	112390	112390	112380	112380	0
05/15/2014	112370	112370	112360	112370	0
05/16/2014	112160	112160	112150	112150	0
05/19/2014	112160	112170	112160	112160	0
05/20/2014	112100	112100	112090	112090	0
05/21/2014	111910	111910	111900	111900	0
05/22/2014	111790	111790	111770	111770	0
05/23/2014	111610	111610	111600	111610	0
05/27/2014	111510	111510	111510	111510	0
05/28/2014	111330	111330	111330	111330	0
05/29/2014	111420	111420	111410	111410	0
05/30/2014	111740	111750	111740	111740	0
06/02/2014	111280	111280	111260	111270	0
06/03/2014	111520	111530	111520	111520	0
06/04/2014	111480	111480	111460	111470	0
06/05/2014	112160	112160	112160	112160	0
06/06/2014	111980	111980	111960	111960	0
06/09/2014	111510	111520	111500	111520	0
06/10/2014	111300	111300	111290	111290	0
06/11/2014	111200	111200	111190	111190	0
06/12/2014	111500	111500	111480	111480	0
06/13/2014	111140	111140	111130	111130	0
06/16/2014	111500	111500	111490	111490	0
06/17/2014	111220	111230	111220	111230	0
06/18/2014	111370	111370	111360	111360	0
06/19/2014	111890	111890	111890	111890	0
06/20/2014	111720	111720	111710	111710	0
06/23/2014	111920	111920	111910	111920	0
06/24/2014	111920	111920	111910	111910	0
06/25/2014	112060	112080	112060	112070	0
06/26/2014	111960	111960	111950	111950	0
06/27/2014	112290	112290	112280	112290	0
06/30/2014	112870	112870	112870	112870	0
07/01/2014	112760	112760	112760	112760	0
07/02/2014	112530	112530	112520	112530	0
07/03/2014	111930	111930	111930	111930	0
07/07/2014	112010	112020	112010	112020	0
07/08/2014	112060	112060	112050	112050	0
07/09/2014	112330	112330	112330	112330	0
07/10/2014	112090	112090	112090	112090	0
07/11/2014	112160	112160	112150	112150	0
07/14/2014	112190	112190	112170	112170	0
07/15/2014	111690	111690	111680	111680	0
07/16/2014	111340	111340	111330	111330	0
07/17/2014	111450	111450	111450	111450	0
07/18/2014	111410	111410	111410	111410	0
07/21/2014	111410	111410	111400	111400	0
07/22/2014	110870	110870	110860	110860	0
07/23/2014	110840	110840	110830	110830	0
07/24/2014	110840	110840	110820	110820	0
07/25/2014	110580	110580	110570	110570	0
07/28/2014	110610	110610	110610	110610	0
07/29/2014	110310	110310	110300	110300	0
07/30/2014	110050	110050	110040	110040	0
07/31/2014	110080	110080	110070	110070	0
08/01/2014	110440	110440	110430	110430	0
08/04/2014	110320	110320	110310	110310	0
08/05/2014	109990	109990	109980	109980	0
08/06/2014	110180	110180	110170	110170	0
08/07/2014	110060	110060	110050	110050	0
08/08/2014	110480	110480	110470	110480	0
08/11/2014	110340	110340	110330	110330	0
08/12/2014	110200	110200	110190	110200	0
08/13/2014	110250	110250	110250	110250	0
08/14/2014	110360	110360	110360	110360	0
08/15/2014	110790	110800	110790	110800	0
08/18/2014	110350	110350	110340	110340	0
08/19/2014	110030	110030	110020	110020	0
08/20/2014	109550	109550	109540	109540	0
08/21/2014	109750	109750	109740	109740	0
08/22/2014	109460	109460	109430	109430	0
08/25/2014	109270	109270	109270	109270	0
08/26/2014	109040	109040	109030	109030	0
08/27/2014	109330	109340	109330	109340	0
08/28/2014	109310	109310	109310	109310	0
08/29/2014	108900	108900	108890	108890	0
09/02/2014	108770	108770	108760	108770	0
09/03/2014	108950	108960	108950	108950	0
09/04/2014	107240	107240	107230	107230	0
09/05/2014	107430	107430	107430	107430	0
09/08/2014	107130	107130	107120	107120	0
09/09/2014	107170	107180	107170	107170	0
09/10/2014	106800	106800	106790	106790	0
09/11/2014	106970	106970	106970	106970	0
09/12/2014	107180	107180	107170	107170	0
09/15/2014	107000	107000	106990	106990	0
09/16/2014	107320	107320	107310	107310	0
09/17/2014	106700	106720	106700	106720	0
09/18/2014	107110	107110	107100	107100	0
09/19/2014	106410	106410	106400	106400	0
09/22/2014	106380	106380	106360	106360	0
09/23/2014	106570	106570	106560	106560	0
09/24/2014	105880	105880	105870	105870	0
09/25/2014	105690	105690	105690	105690	0
09/26/2014	105180	105190	105180	105190	0
09/29/2014	105240	105250	105240	105240	0
09/30/2014	104790	104790	104790	104790	0
10/01/2014	104560	104560	104560	104560	0
10/02/2014	104920	104930	104920	104920	0
10/03/2014	103400	103400	103380	103380	0
10/06/2014	104140	104160	104140	104160	0
10/07/2014	104520	104530	104520	104530	0
10/08/2014	105070	105070	105060	105060	0
10/09/2014	104860	104860	104850	104850	0
10/10/2014	104430	104430	104430	104430	0
10/13/2014	104930	104930	104910	104910	0
10/14/2014	104820	104840	104820	104840	0
10/15/2014	105960	105970	105960	105960	0
10/16/2014	106080	106080	106060	106060	0
10/17/2014	105820	105820	105810	105810	0
10/20/2014	106190	106190	106190	106190	0
10/21/2014	105490	105490	105490	105490	0
10/22/2014	104870	104880	104870	104880	0
10/23/2014	104890	104890	104880	104880	0
10/24/2014	105050	105050	105040	105040	0
10/27/2014	105460	105460	105450	105450	0
10/28/2014	105660	105660	105650	105650	0
10/29/2014	104900	104900	104890	104890	0
10/30/2014	104640	104640	104630	104630	0
10/31/2014	103930	103930	103920	103920	0
11/03/2014	103670	103680	103670	103670	0
11/04/2014	104270	104270	104270	104270	0
11/05/2014	103680	103690	103680	103690	0
11/06/2014	102910	102910	102900	102910	0
11/07/2014	103420	103420	103410	103420	0
11/10/2014	103310	103320	103310	103320	0
11/11/2014	103650	103650	103630	103630	0
11/12/2014	103450	103450	103440	103440	0
11/13/2014	103930	103930	103910	103910	0
11/14/2014	104300	104300	104290	104290	0
11/17/2014	103680	103680	103680	103680	0
11/18/2014	104370	104370	104360	104360	0
11/19/2014	104430	104440	104420	104440	0
11/20/2014	104460	104460	104450	104450	0
11/21/2014	103090	103100	103090	103100	0
11/24/2014	103430	103430	103430	103430	0
11/25/2014	103690	103690	103690	103690	0
11/26/2014	104120	104120	104110	104110	0
11/28/2014	103500	103500	103490	103500	0
12/01/2014	103730	103740	103730	103740	0
12/02/2014	102830	102830	102810	102820	0
12/03/2014	102280	102280	102280	102280	0
12/04/2014	102880	102880	102880	102880	0
12/05/2014	102220	102220	102220	102220	0
12/08/2014	102630	102630	102620	102620	0
12/09/2014	103110	103110	103100	103100	0
12/10/2014	103480	103500	103480	103500	0
12/11/2014	103200	103200	103190	103190	0
12/12/2014	103790	103790	103780	103780	0
12/15/2014	103660	103660	103650	103650	0
12/16/2014	104120	104120	104090	104090	0
12/17/2014	102840	102840	102810	102810	0
12/18/2014	102190	102190	102180	102180	0
12/19/2014	101760	101760	101750	101760	0
12/22/2014	101730	101730	101720	101720	0
12/23/2014	101420	101420	101410	101420	0
12/24/2014	101550	101550	101530	101530	0
12/26/2014	101410	101410	101410	101410	0
12/29/2014	101210	101220	101210	101220	0
12/30/2014	101240	101240	101210	101210	0
12/31/2014	100760	100760	100740	100740	0
01/02/2015	100010	100010	100010	100010	0
01/05/2015	99490	99490	99480	99480	0
01/06/2015	99320	99320	99300	99300	0
01/07/2015	98800	98800	98790	98790	0
01/08/2015	98220	98220	98210	98210	0
01/09/2015	98700	98710	98700	98710	0
01/12/2015	98680	98690	98680	98690	0
01/13/2015	98060	98060	98060	98060	0
01/14/2015	98170	98180	98170	98170	0
01/15/2015	114800	114840	114800	114840	0
01/16/2015	116910	117000	116910	117000	0
01/20/2015	114230	114270	114230	114270	0
01/21/2015	116800	116810	116800	116810	0
01/22/2015	115170	115190	115170	115190	0
01/23/2015	114350	114390	114340	114390	0
01/26/2015	111280	111400	111280	111400	0
01/27/2015	111630	111630	111600	111600	0
01/28/2015	110710	110710	110670	110670	0
01/29/2015	108390	108390	108350	108350	0
01/30/2015	109280	109280	109220	109280	0
02/02/2015	108030	108030	107990	108000	0
02/03/2015	108640	108650	108610	108610	0
02/04/2015	108510	108510	108480	108480	0
02/05/2015	108620	108620	108570	108580	0
02/06/2015	108130	108140	108040	108060	0
02/09/2015	108650	108740	108650	108740	0
02/10/2015	108110	108110	108100	108100	0
02/11/2015	107930	107950	107930	107950	0
02/12/2015	107530	107530	107510	107510	0
02/13/2015	107350	107350	107330	107330	0
02/17/2015	106860	106870	106860	106870	0
02/18/2015	106100	106100	106090	106090	0
02/19/2015	105370	105380	105370	105380	0
02/20/2015	106180	106200	106180	106200	0
02/23/2015	105280	105290	105280	105290	0
02/24/2015	105320	105320	105300	105300	0
02/25/2015	105590	105620	105590	105610	0
02/26/2015	104950	104950	104920	104920	0
02/27/2015	104810	104810	104790	104790	0
03/02/2015	104280	104280	104250	104250	0
03/03/2015	104100	104100	104100	104100	0
03/04/2015	103870	103870	103870	103870	0
03/05/2015	102660	102660	102610	102610	0
03/06/2015	101580	101580	101550	101560	0
03/09/2015	101910	101920	101910	101920	0
03/10/2015	100520	100520	100520	100520	0
03/11/2015	99330	99330	99320	99320	0
03/12/2015	99720	99720	99670	99670	0
03/13/2015	99610	99610	99590	99590	0
03/16/2015	99570	99570	99550	99550	0
03/17/2015	99670	99670	99660	99660	0
03/18/2015	101600	101600	101540	101540	0
03/19/2015	101230	101250	101230	101250	0
03/20/2015	102730	102730	102720	102730	0
03/23/2015	103780	103780	103760	103760	0
03/24/2015	104690	104690	104670	104690	0
03/25/2015	104340	104340	104310	104310	0
03/26/2015	104090	104100	104090	104100	0
03/27/2015	104470	104470	104450	104450	0
03/30/2015	103670	103680	103670	103680	0
03/31/2015	103150	103150	103140	103150	0
04/01/2015	103780	103780	103780	103780	0
04/02/2015	104600	104600	104580	104580	0
04/06/2015	104910	104910	104890	104890	0
04/07/2015	103820	103830	103810	103830	0
04/08/2015	103970	103980	103970	103970	0
04/09/2015	102410	102420	102400	102410	0
04/10/2015	102480	102500	102480	102490	0
04/13/2015	102530	102530	102510	102520	0
04/14/2015	103020	103020	103010	103010	0
04/15/2015	103990	104000	103980	103980	0
04/16/2015	104970	105000	104970	105000	0
04/17/2015	105100	105120	105100	105110	0
04/20/2015	104800	104800	104770	104780	0
04/21/2015	104920	104920	104900	104910	0
04/22/2015	103360	103360	103340	103340	0
04/23/2015	104940	104960	104940	104950	0
04/24/2015	105040	105040	105030	105040	0
04/27/2015	104800	104800	104780	104780	0
04/28/2015	104980	104980	104980	104980	0
04/29/2015	106590	106600	106590	106600	0
04/30/2015	107540	107570	107540	107570	0
05/01/2015	107190	107200	107190	107200	0
05/04/2015	107180	107180	107160	107170	0
05/05/2015	108150	108150	108130	108130	0
05/06/2015	109430	109430	109380	109380	0
05/07/2015	108650	108660	108640	108660	0
05/08/2015	107500	107510	107500	107510	0
05/11/2015	107220	107220	107220	107220	0
05/12/2015	107830	107840	107820	107820	0
05/13/2015	109240	109240	109230	109230	0
05/14/2015	109650	109650	109640	109640	0
05/15/2015	109490	109520	109490	109520	0
05/18/2015	108120	108120	108110	108110	0
05/19/2015	106760	106770	106760	106770	0
05/20/2015	106990	106990	106980	106980	0
05/21/2015	106990	106990	106980	106980	0
05/22/2015	106150	106160	106140	106150	0
05/26/2015	105000	105010	105000	105010	0
05/27/2015	105150	105160	105150	105160	0
05/28/2015	106140	106150	106140	106150	0
05/29/2015	106420	106430	106420	106430	0
06/01/2015	105770	105780	105760	105780	0
06/02/2015	107260	107300	107260	107300	0
06/03/2015	106900	106910	106900	106910	0
06/04/2015	107220	107220	107220	107220	0
06/05/2015	106490	106490	106470	106470	0
06/08/2015	108040	108040	108020	108020	0
06/09/2015	107750	107770	107750	107770	0
06/10/2015	107700	107710	107690	107690	0
06/11/2015	107400	107400	107390	107400	0
06/12/2015	108110	108110	108090	108100	0
06/15/2015	107740	107740	107730	107730	0
06/16/2015	107630	107630	107620	107620	0
06/17/2015	108840	108840	108830	108830	0
06/18/2015	108820	108820	108810	108810	0
06/19/2015	109380	109380	109360	109370	0
06/22/2015	108880	108880	108860	108860	0
06/23/2015	107250	107250	107220	107220	0
06/24/2015	107420	107420	107390	107390	0
06/25/2015	107130	107130	107100	107100	0
06/26/2015	107070	107070	107060	107060	0
06/29/2015	108320	108340	108310	108340	0
06/30/2015	107240	107240	107210	107220	0
07/01/2015	105690	105690	105670	105670	0
07/02/2015	106260	106260	106240	106250	0
07/06/2015	106340	106340	106330	106330	0
07/07/2015	105960	105960	105940	105940	0
07/08/2015	106000	106010	106000	106000	0
07/09/2015	105630	105650	105630	105650	0
07/10/2015	106450	106450	106450	106450	0
07/13/2015	105490	105490	105460	105460	0
07/14/2015	106050	106050	106030	106030	0
07/15/2015	105240	105250	105220	105220	0
07/16/2015	104640	104640	104620	104620	0
07/17/2015	104260	104270	104260	104270	0
07/20/2015	103900	103900	103890	103890	0
07/21/2015	104550	104550	104540	104540	0
07/22/2015	104220	104220	104190	104190	0
07/23/2015	104580	104590	104580	104590	0
07/24/2015	104060	104060	104060	104060	0
07/27/2015	103970	104000	103970	104000	0
07/28/2015	104000	104000	103970	103970	0
07/29/2015	103630	103640	103630	103640	0
07/30/2015	103230	103230	103220	103220	0
07/31/2015	103500	103500	103460	103460	0
08/03/2015	103230	103240	103230	103240	0
08/04/2015	102300	102310	102290	102290	0
08/05/2015	102220	102220	102190	102190	0
08/06/2015	102030	102040	102030	102040	0
08/07/2015	101830	101830	101820	101820	0
08/10/2015	101760	101770	101760	101770	0
08/11/2015	101170	101180	101170	101180	0
08/12/2015	102710	102750	102710	102750	0
08/13/2015	102460	102460	102450	102450	0
08/14/2015	102500	102500	102470	102470	0
08/17/2015	102440	102440	102410	102410	0
08/18/2015	102390	102390	102380	102380	0
08/19/2015	103690	103690	103690	103690	0
08/20/2015	104050	104060	104050	104060	0
08/21/2015	105520	105540	105520	105540	0
08/24/2015	107390	107430	107390	107430	0
08/25/2015	106060	106060	106050	106060	0
08/26/2015	105070	105090	105070	105090	0
08/27/2015	103660	103680	103660	103680	0
08/28/2015	103890	103890	103880	103880	0
08/31/2015	103560	103570	103560	103570	0
09/01/2015	104160	104160	104130	104130	0
09/02/2015	103210	103210	103180	103180	0
09/03/2015	102710	102720	102710	102720	0
09/04/2015	102780	102790	102780	102790	0
09/08/2015	101960	101970	101950	101950	0
09/09/2015	102710	102710	102680	102680	0
09/10/2015	102820	102840	102820	102830	0
09/11/2015	103540	103540	103530	103530	0
09/14/2015	103590	103590	103560	103560	0
09/15/2015	102970	102970	102950	102950	0
09/16/2015	103300	103300	103290	103290	0
09/17/2015	104300	104350	104300	104340	0
09/18/2015	104040	104040	104030	104040	0
09/21/2015	103290	103300	103270	103300	0
09/22/2015	102870	102870	102860	102870	0
09/23/2015	102620	102620	102610	102610	0
09/24/2015	102740	102740	102700	102700	0
09/25/2015	102340	102340	102310	102310	0
09/28/2015	102860	102860	102860	102860	0
09/29/2015	103290	103300	103290	103290	0
09/30/2015	102830	102830	102820	102820	0
10/01/2015	102580	102580	102540	102540	0
10/02/2015	103250	103290	103250	103290	0
10/05/2015	102740	102740	102710	102710	0
10/06/2015	103670	103690	103670	103690	0
10/07/2015	103090	103090	103050	103070	0
10/08/2015	103650	103690	103650	103690	0
10/09/2015	104340	104340	104310	104310	0
10/12/2015	104290	104300	104280	104300	0
10/13/2015	104600	104600	104560	104560	0
10/14/2015	105590	105610	105590	105600	0
10/15/2015	105350	105380	105350	105380	0
10/16/2015	105300	105330	105290	105330	0
10/19/2015	104810	104810	104760	104760	0
10/20/2015	104690	104690	104680	104690	0
10/21/2015	104470	104470	104450	104460	0
10/22/2015	102860	102860	102840	102840	0
10/23/2015	102230	102230	102220	102220	0
10/26/2015	101840	101840	101810	101810	0
10/27/2015	101530	101530	101520	101520	0
10/28/2015	100670	100670	100650	100650	0
10/29/2015	101130	101130	101090	101100	0
10/30/2015	101340	101340	101310	101310	0
11/02/2015	101450	101450	101450	101450	0
11/03/2015	101090	101090	101080	101090	0
11/04/2015	100730	100730	100700	100700	0
11/05/2015	100590	100600	100590	100600	0
11/06/2015	99510	99510	99490	99490	0
11/09/2015	99750	99770	99750	99770	0
11/10/2015	99410	99430	99410	99430	0
11/11/2015	99570	99570	99560	99560	0
11/12/2015	99970	99970	99950	99950	0
11/13/2015	99370	99370	99340	99340	0
11/16/2015	99090	99090	99080	99090	0
11/17/2015	98650	98650	98620	98620	0
11/18/2015	98140	98140	98110	98110	0
11/19/2015	98790	98790	98780	98790	0
11/20/2015	98220	98230	98210	98230	0
11/23/2015	98170	98170	98160	98170	0
11/24/2015	98600	98600	98590	98590	0
11/25/2015	97960	97960	97930	97930	0
11/27/2015	97180	97200	97180	97200	0
11/30/2015	97350	97350	97330	97340	0
12/01/2015	97360	97370	97360	97370	0
12/02/2015	98170	98180	98170	98180	0
12/03/2015	101120	101200	101120	101200	0
12/04/2015	100390	100390	100370	100380	0
12/07/2015	100050	100070	100050	100070	0
12/08/2015	100770	100770	100760	100760	0
12/09/2015	101750	101760	101730	101730	0
12/10/2015	101120	101150	101120	101150	0
12/11/2015	102240	102240	102210	102210	0
12/14/2015	101980	101980	101960	101960	0
12/15/2015	101400	101400	101390	101400	0
12/16/2015	102110	102120	102110	102120	0
12/17/2015	100640	100650	100640	100650	0
12/18/2015	101210	101220	101190	101190	0
12/21/2015	101310	101310	101280	101280	0
12/22/2015	101660	101660	101630	101630	0
12/23/2015	101300	101300	101290	101290	0
12/24/2015	101640	101660	101640	101660	0
12/28/2015	101610	101610	101610	101610	0
12/29/2015	101230	101260	101230	101260	0
12/30/2015	101560	101580	101550	101580	0
12/31/2015	100260	100320	100260	100320	0
01/04/2016	100090	100100	100080	100080	0
01/05/2016	99440	99440	99430	99440	0
01/06/2016	99620	99640	99620	99640	0
01/07/2016	100960	100990	100960	100990	0
01/08/2016	100700	100710	100690	100700	0
01/11/2016	100270	100280	100260	100280	0
01/12/2016	100020	100020	100000	100000	0
01/13/2016	99570	99600	99570	99600	0
01/14/2016	99690	99700	99690	99700	0
01/15/2016	100020	100020	100000	100010	0
01/19/2016	100010	100010	100000	100000	0
01/20/2016	99740	99740	99730	99740	0
01/21/2016	99490	99490	99480	99490	0
01/22/2016	98570	98570	98560	98560	0
01/25/2016	98690	98690	98670	98670	0
01/26/2016	98450	98470	98450	98460	0
01/27/2016	98810	98810	98780	98780	0
01/28/2016	98850	98850	98840	98850	0
01/29/2016	97770	97770	97740	97740	0
02/01/2016	98250	98260	98250	98250	0
02/02/2016	98210	98210	98190	98190	0
02/03/2016	99600	99640	99600	99640	0
02/04/2016	100860	100870	100860	100870	0
02/05/2016	100970	100990	100970	100990	0
02/08/2016	101690	101690	101650	101650	0
02/09/2016	102980	102990	102980	102980	0
02/10/2016	102850	102900	102850	102900	0
02/11/2016	102940	102950	102930	102940	0
02/12/2016	102570	102610	102570	102610	0
02/16/2016	101280	101280	101270	101280	0
02/17/2016	101010	101010	101010	101010	0
02/18/2016	100630	100630	100610	100610	0
02/19/2016	101180	101190	101180	101180	0
02/22/2016	100170	100170	100150	100150	0
02/23/2016	100830	100830	100820	100820	0
02/24/2016	101310	101310	101300	101300	0
02/25/2016	101210	101210	101200	101200	0
02/26/2016	100300	100300	100290	100300	0
02/29/2016	100220	100220	100200	100200	0
03/01/2016	100340	100340	100340	100340	0
03/02/2016	100420	100420	100410	100410	0
03/03/2016	100940	100940	100920	100920	0
03/04/2016	100490	100530	100490	100530	0
03/07/2016	100530	100550	100530	100550	0
03/08/2016	100380	100390	100380	100380	0
03/09/2016	100290	100290	100270	100270	0
03/10/2016	101790	101810	101790	101800	0
03/11/2016	102250	102270	102250	102270	0
03/14/2016	101630	101640	101630	101640	0
03/15/2016	101690	101700	101690	101700	0
03/16/2016	102470	102500	102460	102500	0
03/17/2016	103770	103800	103770	103800	0
03/18/2016	103500	103500	103490	103490	0
03/21/2016	103540	103540	103520	103520	0
03/22/2016	103140	103150	103140	103150	0
03/23/2016	102890	102890	102860	102860	0
03/24/2016	102840	102850	102840	102850	0
03/28/2016	103030	103040	103030	103040	0
03/29/2016	103820	103840	103820	103840	0
03/30/2016	104060	104070	104060	104070	0
03/31/2016	104470	104470	104440	104440	0
04/01/2016	104600	104620	104600	104620	0
04/04/2016	104590	104610	104590	104610	0
04/05/2016	104890	104900	104890	104900	0
04/06/2016	104950	104950	104940	104950	0
04/07/2016	104930	104950	104930	104950	0
04/08/2016	105120	105140	105120	105140	0
04/11/2016	105130	105130	105110	105110	0
04/12/2016	105000	105000	104990	104990	0
04/13/2016	103690	103690	103680	103680	0
04/14/2016	103670	103670	103660	103670	0
04/15/2016	103560	103560	103560	103560	0
04/18/2016	103950	103950	103910	103910	0
04/19/2016	104370	104370	104350	104350	0
04/20/2016	103180	103190	103180	103190	0
04/21/2016	102860	102860	102850	102850	0
04/22/2016	102380	102380	102370	102380	0
04/25/2016	102660	102670	102650	102650	0
04/26/2016	102830	102830	102820	102820	0
04/27/2016	103170	103200	103170	103200	0
04/28/2016	103630	103650	103630	103640	0
04/29/2016	104430	104440	104420	104440	0
05/02/2016	104920	104920	104910	104920	0
05/03/2016	105010	105010	105000	105000	0
05/04/2016	104740	104760	104740	104760	0
05/05/2016	103380	103380	103360	103360	0
05/06/2016	103030	103040	103030	103040	0
05/09/2016	103150	103150	103130	103130	0
05/10/2016	102630	102630	102620	102620	0
05/11/2016	103100	103110	103100	103110	0
05/12/2016	103130	103140	103130	103130	0
05/13/2016	102660	102670	102660	102670	0
05/16/2016	102370	102370	102350	102350	0
05/17/2016	102140	102140	102120	102140	0
05/18/2016	101500	101500	101470	101470	0
05/19/2016	101050	101070	101050	101070	0
05/20/2016	101000	101010	101000	101010	0
05/23/2016	101150	101150	101130	101130	0
05/24/2016	100800	100810	100800	100800	0
05/25/2016	101030	101030	101000	101000	0
05/26/2016	101120	101120	101110	101110	0
05/27/2016	100880	100880	100870	100880	0
05/31/2016	100630	100630	100620	100620	0
06/01/2016	101150	101160	101150	101160	0
06/02/2016	100940	100950	100940	100950	0
06/03/2016	102420	102420	102400	102400	0
06/06/2016	103150	103160	103150	103150	0
06/07/2016	103640	103650	103630	103630	0
06/08/2016	104280	104290	104280	104280	0
06/09/2016	103830	103860	103830	103860	0
06/10/2016	104310	104330	104310	104330	0
06/13/2016	104240	104240	104220	104220	0
06/14/2016	104350	104350	104330	104340	0
06/15/2016	104590	104590	104590	104590	0
06/16/2016	104220	104230	104220	104230	0
06/17/2016	104600	104600	104590	104600	0
06/20/2016	104400	104410	104400	104410	0
06/21/2016	104530	104530	104510	104510	0
06/22/2016	104840	104850	104840	104840	0
06/23/2016	104920	104920	104910	104910	0
06/24/2016	103390	103400	103360	103360	0
06/27/2016	102640	102670	102640	102670	0
06/28/2016	102180	102200	102170	102200	0
06/29/2016	102480	102480	102460	102470	0
06/30/2016	102670	102670	102640	102640	0
07/01/2016	103120	103120	103100	103110	0
07/05/2016	102730	102730	102720	102730	0
07/06/2016	103070	103070	103070	103070	0
07/07/2016	102550	102550	102540	102540	0
07/08/2016	102120	102120	102110	102120	0
07/11/2016	102150	102150	102130	102130	0
07/12/2016	101570	101570	101560	101570	0
07/13/2016	102100	102100	102080	102080	0
07/14/2016	102350	102350	102340	102340	0
07/15/2016	102080	102080	102050	102050	0
07/18/2016	102090	102100	102090	102100	0
07/19/2016	101790	101790	101790	101790	0
07/20/2016	101590	101610	101590	101600	0
07/21/2016	101640	101640	101630	101640	0
07/22/2016	101470	101470	101460	101460	0
07/25/2016	101670	101680	101670	101680	0
07/26/2016	101040	101050	101040	101050	0
07/27/2016	101260	101260	101250	101250	0
07/28/2016	102170	102210	102170	102210	0
07/29/2016	103560	103560	103530	103530	0
08/01/2016	103630	103630	103620	103620	0
08/02/2016	103980	103990	103980	103990	0
08/03/2016	103010	103010	102990	102990	0
08/04/2016	102930	102930	102930	102930	0
08/05/2016	102300	102300	102300	102300	0
08/08/2016	101950	101950	101940	101940	0
08/09/2016	102010	102010	102000	102010	0
08/10/2016	102740	102740	102730	102730	0
08/11/2016	102790	102810	102790	102810	0
08/12/2016	102760	102760	102740	102740	0
08/15/2016	103000	103000	103000	103000	0
08/16/2016	104080	104080	104080	104080	0
08/17/2016	104170	104170	104160	104160	0
08/18/2016	104990	105000	104990	104990	0
08/19/2016	104340	104360	104340	104360	0
08/22/2016	104150	104160	104150	104160	0
08/23/2016	104040	104040	104010	104010	0
08/24/2016	103530	103530	103510	103520	0
08/25/2016	103420	103430	103420	103430	0
